('D:\\netra-desktopapp\\build\\main_app\\PYZ-00.pyz',
 [('win32com',
   'c:\\users\\wot-mahek\\.conda\\envs\\cutsomtf\\lib\\site-packages\\win32com\\__init__.py',
   'PYMODULE'),
  ('win32com.server.util',
   'c:\\users\\wot-mahek\\.conda\\envs\\cutsomtf\\lib\\site-packages\\win32com\\server\\util.py',
   'PYMODULE'),
  ('win32com.server.dispatcher',
   'c:\\users\\wot-mahek\\.conda\\envs\\cutsomtf\\lib\\site-packages\\win32com\\server\\dispatcher.py',
   'PYMODULE'),
  ('win32traceutil',
   'c:\\users\\wot-mahek\\.conda\\envs\\cutsomtf\\lib\\site-packages\\win32\\lib\\win32traceutil.py',
   'PYMODULE'),
  ('win32com.util',
   'c:\\users\\wot-mahek\\.conda\\envs\\cutsomtf\\lib\\site-packages\\win32com\\util.py',
   'PYMODULE'),
  ('win32con',
   'c:\\users\\wot-mahek\\.conda\\envs\\cutsomtf\\lib\\site-packages\\win32\\lib\\win32con.py',
   'PYMODULE'),
  ('win32com.server.exception',
   'c:\\users\\wot-mahek\\.conda\\envs\\cutsomtf\\lib\\site-packages\\win32com\\server\\exception.py',
   'PYMODULE'),
  ('winerror',
   'c:\\users\\wot-mahek\\.conda\\envs\\cutsomtf\\lib\\site-packages\\win32\\lib\\winerror.py',
   'PYMODULE'),
  ('win32com.server.policy',
   'c:\\users\\wot-mahek\\.conda\\envs\\cutsomtf\\lib\\site-packages\\win32com\\server\\policy.py',
   'PYMODULE'),
  ('win32com.client',
   'c:\\users\\wot-mahek\\.conda\\envs\\cutsomtf\\lib\\site-packages\\win32com\\client\\__init__.py',
   'PYMODULE'),
  ('win32com.client.makepy',
   'c:\\users\\wot-mahek\\.conda\\envs\\cutsomtf\\lib\\site-packages\\win32com\\client\\makepy.py',
   'PYMODULE'),
  ('getopt',
   'c:\\users\\wot-mahek\\.conda\\envs\\cutsomtf\\lib\\getopt.py',
   'PYMODULE'),
  ('gettext',
   'c:\\users\\wot-mahek\\.conda\\envs\\cutsomtf\\lib\\gettext.py',
   'PYMODULE'),
  ('struct',
   'c:\\users\\wot-mahek\\.conda\\envs\\cutsomtf\\lib\\struct.py',
   'PYMODULE'),
  ('copy',
   'c:\\users\\wot-mahek\\.conda\\envs\\cutsomtf\\lib\\copy.py',
   'PYMODULE'),
  ('pywin.dialogs.status',
   'c:\\users\\wot-mahek\\.conda\\envs\\cutsomtf\\lib\\site-packages\\Pythonwin\\pywin\\dialogs\\status.py',
   'PYMODULE'),
  ('pywin.mfc.thread',
   'c:\\users\\wot-mahek\\.conda\\envs\\cutsomtf\\lib\\site-packages\\Pythonwin\\pywin\\mfc\\thread.py',
   'PYMODULE'),
  ('pywin.mfc.object',
   'c:\\users\\wot-mahek\\.conda\\envs\\cutsomtf\\lib\\site-packages\\Pythonwin\\pywin\\mfc\\object.py',
   'PYMODULE'),
  ('pywin.mfc.dialog',
   'c:\\users\\wot-mahek\\.conda\\envs\\cutsomtf\\lib\\site-packages\\Pythonwin\\pywin\\mfc\\dialog.py',
   'PYMODULE'),
  ('pywin.mfc.window',
   'c:\\users\\wot-mahek\\.conda\\envs\\cutsomtf\\lib\\site-packages\\Pythonwin\\pywin\\mfc\\window.py',
   'PYMODULE'),
  ('pywin.mfc',
   'c:\\users\\wot-mahek\\.conda\\envs\\cutsomtf\\lib\\site-packages\\Pythonwin\\pywin\\mfc\\__init__.py',
   'PYMODULE'),
  ('pywin.dialogs',
   'c:\\users\\wot-mahek\\.conda\\envs\\cutsomtf\\lib\\site-packages\\Pythonwin\\pywin\\dialogs\\__init__.py',
   'PYMODULE'),
  ('pywin',
   'c:\\users\\wot-mahek\\.conda\\envs\\cutsomtf\\lib\\site-packages\\Pythonwin\\pywin\\__init__.py',
   'PYMODULE'),
  ('importlib',
   'c:\\users\\wot-mahek\\.conda\\envs\\cutsomtf\\lib\\importlib\\__init__.py',
   'PYMODULE'),
  ('importlib.abc',
   'c:\\users\\wot-mahek\\.conda\\envs\\cutsomtf\\lib\\importlib\\abc.py',
   'PYMODULE'),
  ('importlib.machinery',
   'c:\\users\\wot-mahek\\.conda\\envs\\cutsomtf\\lib\\importlib\\machinery.py',
   'PYMODULE'),
  ('importlib._bootstrap_external',
   'c:\\users\\wot-mahek\\.conda\\envs\\cutsomtf\\lib\\importlib\\_bootstrap_external.py',
   'PYMODULE'),
  ('tokenize',
   'c:\\users\\wot-mahek\\.conda\\envs\\cutsomtf\\lib\\tokenize.py',
   'PYMODULE'),
  ('argparse',
   'c:\\users\\wot-mahek\\.conda\\envs\\cutsomtf\\lib\\argparse.py',
   'PYMODULE'),
  ('textwrap',
   'c:\\users\\wot-mahek\\.conda\\envs\\cutsomtf\\lib\\textwrap.py',
   'PYMODULE'),
  ('token',
   'c:\\users\\wot-mahek\\.conda\\envs\\cutsomtf\\lib\\token.py',
   'PYMODULE'),
  ('importlib._bootstrap',
   'c:\\users\\wot-mahek\\.conda\\envs\\cutsomtf\\lib\\importlib\\_bootstrap.py',
   'PYMODULE'),
  ('win32com.client.gencache',
   'c:\\users\\wot-mahek\\.conda\\envs\\cutsomtf\\lib\\site-packages\\win32com\\client\\gencache.py',
   'PYMODULE'),
  ('zipfile',
   'c:\\users\\wot-mahek\\.conda\\envs\\cutsomtf\\lib\\zipfile.py',
   'PYMODULE'),
  ('py_compile',
   'c:\\users\\wot-mahek\\.conda\\envs\\cutsomtf\\lib\\py_compile.py',
   'PYMODULE'),
  ('ntpath',
   'c:\\users\\wot-mahek\\.conda\\envs\\cutsomtf\\lib\\ntpath.py',
   'PYMODULE'),
  ('string',
   'c:\\users\\wot-mahek\\.conda\\envs\\cutsomtf\\lib\\string.py',
   'PYMODULE'),
  ('genericpath',
   'c:\\users\\wot-mahek\\.conda\\envs\\cutsomtf\\lib\\genericpath.py',
   'PYMODULE'),
  ('lzma',
   'c:\\users\\wot-mahek\\.conda\\envs\\cutsomtf\\lib\\lzma.py',
   'PYMODULE'),
  ('_compression',
   'c:\\users\\wot-mahek\\.conda\\envs\\cutsomtf\\lib\\_compression.py',
   'PYMODULE'),
  ('bz2',
   'c:\\users\\wot-mahek\\.conda\\envs\\cutsomtf\\lib\\bz2.py',
   'PYMODULE'),
  ('dummy_threading',
   'c:\\users\\wot-mahek\\.conda\\envs\\cutsomtf\\lib\\dummy_threading.py',
   'PYMODULE'),
  ('_dummy_thread',
   'c:\\users\\wot-mahek\\.conda\\envs\\cutsomtf\\lib\\_dummy_thread.py',
   'PYMODULE'),
  ('stat',
   'c:\\users\\wot-mahek\\.conda\\envs\\cutsomtf\\lib\\stat.py',
   'PYMODULE'),
  ('importlib.util',
   'c:\\users\\wot-mahek\\.conda\\envs\\cutsomtf\\lib\\importlib\\util.py',
   'PYMODULE'),
  ('contextlib',
   'c:\\users\\wot-mahek\\.conda\\envs\\cutsomtf\\lib\\contextlib.py',
   'PYMODULE'),
  ('pickle',
   'c:\\users\\wot-mahek\\.conda\\envs\\cutsomtf\\lib\\pickle.py',
   'PYMODULE'),
  ('pprint',
   'c:\\users\\wot-mahek\\.conda\\envs\\cutsomtf\\lib\\pprint.py',
   'PYMODULE'),
  ('doctest',
   'c:\\users\\wot-mahek\\.conda\\envs\\cutsomtf\\lib\\doctest.py',
   'PYMODULE'),
  ('unittest',
   'c:\\users\\wot-mahek\\.conda\\envs\\cutsomtf\\lib\\unittest\\__init__.py',
   'PYMODULE'),
  ('unittest.signals',
   'c:\\users\\wot-mahek\\.conda\\envs\\cutsomtf\\lib\\unittest\\signals.py',
   'PYMODULE'),
  ('signal',
   'c:\\users\\wot-mahek\\.conda\\envs\\cutsomtf\\lib\\signal.py',
   'PYMODULE'),
  ('unittest.main',
   'c:\\users\\wot-mahek\\.conda\\envs\\cutsomtf\\lib\\unittest\\main.py',
   'PYMODULE'),
  ('unittest.runner',
   'c:\\users\\wot-mahek\\.conda\\envs\\cutsomtf\\lib\\unittest\\runner.py',
   'PYMODULE'),
  ('unittest.loader',
   'c:\\users\\wot-mahek\\.conda\\envs\\cutsomtf\\lib\\unittest\\loader.py',
   'PYMODULE'),
  ('fnmatch',
   'c:\\users\\wot-mahek\\.conda\\envs\\cutsomtf\\lib\\fnmatch.py',
   'PYMODULE'),
  ('posixpath',
   'c:\\users\\wot-mahek\\.conda\\envs\\cutsomtf\\lib\\posixpath.py',
   'PYMODULE'),
  ('unittest.suite',
   'c:\\users\\wot-mahek\\.conda\\envs\\cutsomtf\\lib\\unittest\\suite.py',
   'PYMODULE'),
  ('unittest.case',
   'c:\\users\\wot-mahek\\.conda\\envs\\cutsomtf\\lib\\unittest\\case.py',
   'PYMODULE'),
  ('logging',
   'c:\\users\\wot-mahek\\.conda\\envs\\cutsomtf\\lib\\logging\\__init__.py',
   'PYMODULE'),
  ('unittest.result',
   'c:\\users\\wot-mahek\\.conda\\envs\\cutsomtf\\lib\\unittest\\result.py',
   'PYMODULE'),
  ('unittest.util',
   'c:\\users\\wot-mahek\\.conda\\envs\\cutsomtf\\lib\\unittest\\util.py',
   'PYMODULE'),
  ('pdb',
   'c:\\users\\wot-mahek\\.conda\\envs\\cutsomtf\\lib\\pdb.py',
   'PYMODULE'),
  ('pydoc',
   'c:\\users\\wot-mahek\\.conda\\envs\\cutsomtf\\lib\\pydoc.py',
   'PYMODULE'),
  ('webbrowser',
   'c:\\users\\wot-mahek\\.conda\\envs\\cutsomtf\\lib\\webbrowser.py',
   'PYMODULE'),
  ('socket',
   'c:\\users\\wot-mahek\\.conda\\envs\\cutsomtf\\lib\\socket.py',
   'PYMODULE'),
  ('selectors',
   'c:\\users\\wot-mahek\\.conda\\envs\\cutsomtf\\lib\\selectors.py',
   'PYMODULE'),
  ('email.message',
   'c:\\users\\wot-mahek\\.conda\\envs\\cutsomtf\\lib\\email\\message.py',
   'PYMODULE'),
  ('email.policy',
   'c:\\users\\wot-mahek\\.conda\\envs\\cutsomtf\\lib\\email\\policy.py',
   'PYMODULE'),
  ('email.contentmanager',
   'c:\\users\\wot-mahek\\.conda\\envs\\cutsomtf\\lib\\email\\contentmanager.py',
   'PYMODULE'),
  ('email.quoprimime',
   'c:\\users\\wot-mahek\\.conda\\envs\\cutsomtf\\lib\\email\\quoprimime.py',
   'PYMODULE'),
  ('email.headerregistry',
   'c:\\users\\wot-mahek\\.conda\\envs\\cutsomtf\\lib\\email\\headerregistry.py',
   'PYMODULE'),
  ('email._header_value_parser',
   'c:\\users\\wot-mahek\\.conda\\envs\\cutsomtf\\lib\\email\\_header_value_parser.py',
   'PYMODULE'),
  ('urllib',
   'c:\\users\\wot-mahek\\.conda\\envs\\cutsomtf\\lib\\urllib\\__init__.py',
   'PYMODULE'),
  ('email.iterators',
   'c:\\users\\wot-mahek\\.conda\\envs\\cutsomtf\\lib\\email\\iterators.py',
   'PYMODULE'),
  ('email.generator',
   'c:\\users\\wot-mahek\\.conda\\envs\\cutsomtf\\lib\\email\\generator.py',
   'PYMODULE'),
  ('random',
   'c:\\users\\wot-mahek\\.conda\\envs\\cutsomtf\\lib\\random.py',
   'PYMODULE'),
  ('bisect',
   'c:\\users\\wot-mahek\\.conda\\envs\\cutsomtf\\lib\\bisect.py',
   'PYMODULE'),
  ('hashlib',
   'c:\\users\\wot-mahek\\.conda\\envs\\cutsomtf\\lib\\hashlib.py',
   'PYMODULE'),
  ('email._encoded_words',
   'c:\\users\\wot-mahek\\.conda\\envs\\cutsomtf\\lib\\email\\_encoded_words.py',
   'PYMODULE'),
  ('base64',
   'c:\\users\\wot-mahek\\.conda\\envs\\cutsomtf\\lib\\base64.py',
   'PYMODULE'),
  ('email.charset',
   'c:\\users\\wot-mahek\\.conda\\envs\\cutsomtf\\lib\\email\\charset.py',
   'PYMODULE'),
  ('email.encoders',
   'c:\\users\\wot-mahek\\.conda\\envs\\cutsomtf\\lib\\email\\encoders.py',
   'PYMODULE'),
  ('email.base64mime',
   'c:\\users\\wot-mahek\\.conda\\envs\\cutsomtf\\lib\\email\\base64mime.py',
   'PYMODULE'),
  ('email._policybase',
   'c:\\users\\wot-mahek\\.conda\\envs\\cutsomtf\\lib\\email\\_policybase.py',
   'PYMODULE'),
  ('email.header',
   'c:\\users\\wot-mahek\\.conda\\envs\\cutsomtf\\lib\\email\\header.py',
   'PYMODULE'),
  ('email.errors',
   'c:\\users\\wot-mahek\\.conda\\envs\\cutsomtf\\lib\\email\\errors.py',
   'PYMODULE'),
  ('email.utils',
   'c:\\users\\wot-mahek\\.conda\\envs\\cutsomtf\\lib\\email\\utils.py',
   'PYMODULE'),
  ('email._parseaddr',
   'c:\\users\\wot-mahek\\.conda\\envs\\cutsomtf\\lib\\email\\_parseaddr.py',
   'PYMODULE'),
  ('calendar',
   'c:\\users\\wot-mahek\\.conda\\envs\\cutsomtf\\lib\\calendar.py',
   'PYMODULE'),
  ('datetime',
   'c:\\users\\wot-mahek\\.conda\\envs\\cutsomtf\\lib\\datetime.py',
   'PYMODULE'),
  ('_strptime',
   'c:\\users\\wot-mahek\\.conda\\envs\\cutsomtf\\lib\\_strptime.py',
   'PYMODULE'),
  ('email',
   'c:\\users\\wot-mahek\\.conda\\envs\\cutsomtf\\lib\\email\\__init__.py',
   'PYMODULE'),
  ('email.parser',
   'c:\\users\\wot-mahek\\.conda\\envs\\cutsomtf\\lib\\email\\parser.py',
   'PYMODULE'),
  ('email.feedparser',
   'c:\\users\\wot-mahek\\.conda\\envs\\cutsomtf\\lib\\email\\feedparser.py',
   'PYMODULE'),
  ('quopri',
   'c:\\users\\wot-mahek\\.conda\\envs\\cutsomtf\\lib\\quopri.py',
   'PYMODULE'),
  ('uu',
   'c:\\users\\wot-mahek\\.conda\\envs\\cutsomtf\\lib\\uu.py',
   'PYMODULE'),
  ('optparse',
   'c:\\users\\wot-mahek\\.conda\\envs\\cutsomtf\\lib\\optparse.py',
   'PYMODULE'),
  ('http.server',
   'c:\\users\\wot-mahek\\.conda\\envs\\cutsomtf\\lib\\http\\server.py',
   'PYMODULE'),
  ('http',
   'c:\\users\\wot-mahek\\.conda\\envs\\cutsomtf\\lib\\http\\__init__.py',
   'PYMODULE'),
  ('socketserver',
   'c:\\users\\wot-mahek\\.conda\\envs\\cutsomtf\\lib\\socketserver.py',
   'PYMODULE'),
  ('mimetypes',
   'c:\\users\\wot-mahek\\.conda\\envs\\cutsomtf\\lib\\mimetypes.py',
   'PYMODULE'),
  ('http.client',
   'c:\\users\\wot-mahek\\.conda\\envs\\cutsomtf\\lib\\http\\client.py',
   'PYMODULE'),
  ('ssl',
   'c:\\users\\wot-mahek\\.conda\\envs\\cutsomtf\\lib\\ssl.py',
   'PYMODULE'),
  ('ipaddress',
   'c:\\users\\wot-mahek\\.conda\\envs\\cutsomtf\\lib\\ipaddress.py',
   'PYMODULE'),
  ('html',
   'c:\\users\\wot-mahek\\.conda\\envs\\cutsomtf\\lib\\html\\__init__.py',
   'PYMODULE'),
  ('html.entities',
   'c:\\users\\wot-mahek\\.conda\\envs\\cutsomtf\\lib\\html\\entities.py',
   'PYMODULE'),
  ('pydoc_data.topics',
   'c:\\users\\wot-mahek\\.conda\\envs\\cutsomtf\\lib\\pydoc_data\\topics.py',
   'PYMODULE'),
  ('pydoc_data',
   'c:\\users\\wot-mahek\\.conda\\envs\\cutsomtf\\lib\\pydoc_data\\__init__.py',
   'PYMODULE'),
  ('tty',
   'c:\\users\\wot-mahek\\.conda\\envs\\cutsomtf\\lib\\tty.py',
   'PYMODULE'),
  ('subprocess',
   'c:\\users\\wot-mahek\\.conda\\envs\\cutsomtf\\lib\\subprocess.py',
   'PYMODULE'),
  ('urllib.parse',
   'c:\\users\\wot-mahek\\.conda\\envs\\cutsomtf\\lib\\urllib\\parse.py',
   'PYMODULE'),
  ('platform',
   'c:\\users\\wot-mahek\\.conda\\envs\\cutsomtf\\lib\\platform.py',
   'PYMODULE'),
  ('plistlib',
   'c:\\users\\wot-mahek\\.conda\\envs\\cutsomtf\\lib\\plistlib.py',
   'PYMODULE'),
  ('xml.parsers.expat',
   'c:\\users\\wot-mahek\\.conda\\envs\\cutsomtf\\lib\\xml\\parsers\\expat.py',
   'PYMODULE'),
  ('xml.parsers',
   'c:\\users\\wot-mahek\\.conda\\envs\\cutsomtf\\lib\\xml\\parsers\\__init__.py',
   'PYMODULE'),
  ('xml',
   'c:\\users\\wot-mahek\\.conda\\envs\\cutsomtf\\lib\\xml\\__init__.py',
   'PYMODULE'),
  ('xml.sax.expatreader',
   'c:\\users\\wot-mahek\\.conda\\envs\\cutsomtf\\lib\\xml\\sax\\expatreader.py',
   'PYMODULE'),
  ('xml.sax.saxutils',
   'c:\\users\\wot-mahek\\.conda\\envs\\cutsomtf\\lib\\xml\\sax\\saxutils.py',
   'PYMODULE'),
  ('urllib.request',
   'c:\\users\\wot-mahek\\.conda\\envs\\cutsomtf\\lib\\urllib\\request.py',
   'PYMODULE'),
  ('getpass',
   'c:\\users\\wot-mahek\\.conda\\envs\\cutsomtf\\lib\\getpass.py',
   'PYMODULE'),
  ('nturl2path',
   'c:\\users\\wot-mahek\\.conda\\envs\\cutsomtf\\lib\\nturl2path.py',
   'PYMODULE'),
  ('ftplib',
   'c:\\users\\wot-mahek\\.conda\\envs\\cutsomtf\\lib\\ftplib.py',
   'PYMODULE'),
  ('netrc',
   'c:\\users\\wot-mahek\\.conda\\envs\\cutsomtf\\lib\\netrc.py',
   'PYMODULE'),
  ('http.cookiejar',
   'c:\\users\\wot-mahek\\.conda\\envs\\cutsomtf\\lib\\http\\cookiejar.py',
   'PYMODULE'),
  ('urllib.response',
   'c:\\users\\wot-mahek\\.conda\\envs\\cutsomtf\\lib\\urllib\\response.py',
   'PYMODULE'),
  ('urllib.error',
   'c:\\users\\wot-mahek\\.conda\\envs\\cutsomtf\\lib\\urllib\\error.py',
   'PYMODULE'),
  ('xml.sax',
   'c:\\users\\wot-mahek\\.conda\\envs\\cutsomtf\\lib\\xml\\sax\\__init__.py',
   'PYMODULE'),
  ('xml.sax.handler',
   'c:\\users\\wot-mahek\\.conda\\envs\\cutsomtf\\lib\\xml\\sax\\handler.py',
   'PYMODULE'),
  ('xml.sax._exceptions',
   'c:\\users\\wot-mahek\\.conda\\envs\\cutsomtf\\lib\\xml\\sax\\_exceptions.py',
   'PYMODULE'),
  ('xml.sax.xmlreader',
   'c:\\users\\wot-mahek\\.conda\\envs\\cutsomtf\\lib\\xml\\sax\\xmlreader.py',
   'PYMODULE'),
  ('pkgutil',
   'c:\\users\\wot-mahek\\.conda\\envs\\cutsomtf\\lib\\pkgutil.py',
   'PYMODULE'),
  ('shlex',
   'c:\\users\\wot-mahek\\.conda\\envs\\cutsomtf\\lib\\shlex.py',
   'PYMODULE'),
  ('code',
   'c:\\users\\wot-mahek\\.conda\\envs\\cutsomtf\\lib\\code.py',
   'PYMODULE'),
  ('codeop',
   'c:\\users\\wot-mahek\\.conda\\envs\\cutsomtf\\lib\\codeop.py',
   'PYMODULE'),
  ('dis',
   'c:\\users\\wot-mahek\\.conda\\envs\\cutsomtf\\lib\\dis.py',
   'PYMODULE'),
  ('opcode',
   'c:\\users\\wot-mahek\\.conda\\envs\\cutsomtf\\lib\\opcode.py',
   'PYMODULE'),
  ('bdb',
   'c:\\users\\wot-mahek\\.conda\\envs\\cutsomtf\\lib\\bdb.py',
   'PYMODULE'),
  ('cmd',
   'c:\\users\\wot-mahek\\.conda\\envs\\cutsomtf\\lib\\cmd.py',
   'PYMODULE'),
  ('inspect',
   'c:\\users\\wot-mahek\\.conda\\envs\\cutsomtf\\lib\\inspect.py',
   'PYMODULE'),
  ('ast',
   'c:\\users\\wot-mahek\\.conda\\envs\\cutsomtf\\lib\\ast.py',
   'PYMODULE'),
  ('difflib',
   'c:\\users\\wot-mahek\\.conda\\envs\\cutsomtf\\lib\\difflib.py',
   'PYMODULE'),
  ('__future__',
   'c:\\users\\wot-mahek\\.conda\\envs\\cutsomtf\\lib\\__future__.py',
   'PYMODULE'),
  ('_compat_pickle',
   'c:\\users\\wot-mahek\\.conda\\envs\\cutsomtf\\lib\\_compat_pickle.py',
   'PYMODULE'),
  ('glob',
   'c:\\users\\wot-mahek\\.conda\\envs\\cutsomtf\\lib\\glob.py',
   'PYMODULE'),
  ('win32com.client.selecttlb',
   'c:\\users\\wot-mahek\\.conda\\envs\\cutsomtf\\lib\\site-packages\\win32com\\client\\selecttlb.py',
   'PYMODULE'),
  ('pywin.dialogs.list',
   'c:\\users\\wot-mahek\\.conda\\envs\\cutsomtf\\lib\\site-packages\\Pythonwin\\pywin\\dialogs\\list.py',
   'PYMODULE'),
  ('commctrl',
   'c:\\users\\wot-mahek\\.conda\\envs\\cutsomtf\\lib\\site-packages\\win32\\lib\\commctrl.py',
   'PYMODULE'),
  ('win32com.client.genpy',
   'c:\\users\\wot-mahek\\.conda\\envs\\cutsomtf\\lib\\site-packages\\win32com\\client\\genpy.py',
   'PYMODULE'),
  ('win32com.client.CLSIDToClass',
   'c:\\users\\wot-mahek\\.conda\\envs\\cutsomtf\\lib\\site-packages\\win32com\\client\\CLSIDToClass.py',
   'PYMODULE'),
  ('win32com.client.dynamic',
   'c:\\users\\wot-mahek\\.conda\\envs\\cutsomtf\\lib\\site-packages\\win32com\\client\\dynamic.py',
   'PYMODULE'),
  ('win32com.client.build',
   'c:\\users\\wot-mahek\\.conda\\envs\\cutsomtf\\lib\\site-packages\\win32com\\client\\build.py',
   'PYMODULE'),
  ('pywintypes',
   'c:\\users\\wot-mahek\\.conda\\envs\\cutsomtf\\lib\\site-packages\\win32\\lib\\pywintypes.py',
   'PYMODULE'),
  ('distutils.sysconfig',
   'c:\\users\\wot-mahek\\.conda\\envs\\cutsomtf\\lib\\distutils\\sysconfig.py',
   'PYMODULE'),
  ('distutils',
   'c:\\users\\wot-mahek\\.conda\\envs\\cutsomtf\\lib\\distutils\\__init__.py',
   'PYMODULE'),
  ('distutils.archive_util',
   'c:\\users\\wot-mahek\\.conda\\envs\\cutsomtf\\lib\\distutils\\archive_util.py',
   'PYMODULE'),
  ('tarfile',
   'c:\\users\\wot-mahek\\.conda\\envs\\cutsomtf\\lib\\tarfile.py',
   'PYMODULE'),
  ('gzip',
   'c:\\users\\wot-mahek\\.conda\\envs\\cutsomtf\\lib\\gzip.py',
   'PYMODULE'),
  ('distutils.dir_util',
   'c:\\users\\wot-mahek\\.conda\\envs\\cutsomtf\\lib\\distutils\\dir_util.py',
   'PYMODULE'),
  ('distutils.file_util',
   'c:\\users\\wot-mahek\\.conda\\envs\\cutsomtf\\lib\\distutils\\file_util.py',
   'PYMODULE'),
  ('distutils.dep_util',
   'c:\\users\\wot-mahek\\.conda\\envs\\cutsomtf\\lib\\distutils\\dep_util.py',
   'PYMODULE'),
  ('distutils.spawn',
   'c:\\users\\wot-mahek\\.conda\\envs\\cutsomtf\\lib\\distutils\\spawn.py',
   'PYMODULE'),
  ('distutils.debug',
   'c:\\users\\wot-mahek\\.conda\\envs\\cutsomtf\\lib\\distutils\\debug.py',
   'PYMODULE'),
  ('distutils.log',
   'c:\\users\\wot-mahek\\.conda\\envs\\cutsomtf\\lib\\distutils\\log.py',
   'PYMODULE'),
  ('distutils.text_file',
   'c:\\users\\wot-mahek\\.conda\\envs\\cutsomtf\\lib\\distutils\\text_file.py',
   'PYMODULE'),
  ('_osx_support',
   'c:\\users\\wot-mahek\\.conda\\envs\\cutsomtf\\lib\\_osx_support.py',
   'PYMODULE'),
  ('distutils.errors',
   'c:\\users\\wot-mahek\\.conda\\envs\\cutsomtf\\lib\\distutils\\errors.py',
   'PYMODULE'),
  ('win32com.server',
   'c:\\users\\wot-mahek\\.conda\\envs\\cutsomtf\\lib\\site-packages\\win32com\\server\\__init__.py',
   'PYMODULE'),
  ('win32com.universal',
   'c:\\users\\wot-mahek\\.conda\\envs\\cutsomtf\\lib\\site-packages\\win32com\\universal.py',
   'PYMODULE'),
  ('win32com.client.util',
   'c:\\users\\wot-mahek\\.conda\\envs\\cutsomtf\\lib\\site-packages\\win32com\\client\\util.py',
   'PYMODULE'),
  ('pythoncom',
   'c:\\users\\wot-mahek\\.conda\\envs\\cutsomtf\\lib\\site-packages\\pythoncom.py',
   'PYMODULE'),
  ('tempfile',
   'c:\\users\\wot-mahek\\.conda\\envs\\cutsomtf\\lib\\tempfile.py',
   'PYMODULE'),
  ('shutil',
   'c:\\users\\wot-mahek\\.conda\\envs\\cutsomtf\\lib\\shutil.py',
   'PYMODULE'),
  ('pkg_resources',
   'c:\\users\\wot-mahek\\.conda\\envs\\cutsomtf\\lib\\site-packages\\pkg_resources\\__init__.py',
   'PYMODULE'),
  ('packaging.tags',
   'c:\\users\\wot-mahek\\.conda\\envs\\cutsomtf\\lib\\site-packages\\packaging\\tags.py',
   'PYMODULE'),
  ('ctypes',
   'c:\\users\\wot-mahek\\.conda\\envs\\cutsomtf\\lib\\ctypes\\__init__.py',
   'PYMODULE'),
  ('ctypes._endian',
   'c:\\users\\wot-mahek\\.conda\\envs\\cutsomtf\\lib\\ctypes\\_endian.py',
   'PYMODULE'),
  ('typing',
   'c:\\users\\wot-mahek\\.conda\\envs\\cutsomtf\\lib\\typing.py',
   'PYMODULE'),
  ('distutils.util',
   'c:\\users\\wot-mahek\\.conda\\envs\\cutsomtf\\lib\\distutils\\util.py',
   'PYMODULE'),
  ('distutils.filelist',
   'c:\\users\\wot-mahek\\.conda\\envs\\cutsomtf\\lib\\distutils\\filelist.py',
   'PYMODULE'),
  ('packaging._typing',
   'c:\\users\\wot-mahek\\.conda\\envs\\cutsomtf\\lib\\site-packages\\packaging\\_typing.py',
   'PYMODULE'),
  ('packaging.markers',
   'c:\\users\\wot-mahek\\.conda\\envs\\cutsomtf\\lib\\site-packages\\packaging\\markers.py',
   'PYMODULE'),
  ('pyparsing',
   'c:\\users\\wot-mahek\\.conda\\envs\\cutsomtf\\lib\\site-packages\\pyparsing.py',
   'PYMODULE'),
  ('uuid',
   'c:\\users\\wot-mahek\\.conda\\envs\\cutsomtf\\lib\\uuid.py',
   'PYMODULE'),
  ('ctypes.util',
   'c:\\users\\wot-mahek\\.conda\\envs\\cutsomtf\\lib\\ctypes\\util.py',
   'PYMODULE'),
  ('ctypes.macholib.dyld',
   'c:\\users\\wot-mahek\\.conda\\envs\\cutsomtf\\lib\\ctypes\\macholib\\dyld.py',
   'PYMODULE'),
  ('ctypes.macholib',
   'c:\\users\\wot-mahek\\.conda\\envs\\cutsomtf\\lib\\ctypes\\macholib\\__init__.py',
   'PYMODULE'),
  ('ctypes.macholib.dylib',
   'c:\\users\\wot-mahek\\.conda\\envs\\cutsomtf\\lib\\ctypes\\macholib\\dylib.py',
   'PYMODULE'),
  ('ctypes.macholib.framework',
   'c:\\users\\wot-mahek\\.conda\\envs\\cutsomtf\\lib\\ctypes\\macholib\\framework.py',
   'PYMODULE'),
  ('netbios',
   'c:\\users\\wot-mahek\\.conda\\envs\\cutsomtf\\lib\\site-packages\\win32\\lib\\netbios.py',
   'PYMODULE'),
  ('packaging',
   'c:\\users\\wot-mahek\\.conda\\envs\\cutsomtf\\lib\\site-packages\\packaging\\__init__.py',
   'PYMODULE'),
  ('packaging.specifiers',
   'c:\\users\\wot-mahek\\.conda\\envs\\cutsomtf\\lib\\site-packages\\packaging\\specifiers.py',
   'PYMODULE'),
  ('packaging._structures',
   'c:\\users\\wot-mahek\\.conda\\envs\\cutsomtf\\lib\\site-packages\\packaging\\_structures.py',
   'PYMODULE'),
  ('packaging.requirements',
   'c:\\users\\wot-mahek\\.conda\\envs\\cutsomtf\\lib\\site-packages\\packaging\\requirements.py',
   'PYMODULE'),
  ('packaging._compat',
   'c:\\users\\wot-mahek\\.conda\\envs\\cutsomtf\\lib\\site-packages\\packaging\\_compat.py',
   'PYMODULE'),
  ('packaging.utils',
   'c:\\users\\wot-mahek\\.conda\\envs\\cutsomtf\\lib\\site-packages\\packaging\\utils.py',
   'PYMODULE'),
  ('packaging.__about__',
   'c:\\users\\wot-mahek\\.conda\\envs\\cutsomtf\\lib\\site-packages\\packaging\\__about__.py',
   'PYMODULE'),
  ('packaging.version',
   'c:\\users\\wot-mahek\\.conda\\envs\\cutsomtf\\lib\\site-packages\\packaging\\version.py',
   'PYMODULE'),
  ('pkg_resources._vendor.packaging.utils',
   'c:\\users\\wot-mahek\\.conda\\envs\\cutsomtf\\lib\\site-packages\\pkg_resources\\_vendor\\packaging\\utils.py',
   'PYMODULE'),
  ('pkg_resources._vendor.appdirs',
   'c:\\users\\wot-mahek\\.conda\\envs\\cutsomtf\\lib\\site-packages\\pkg_resources\\_vendor\\appdirs.py',
   'PYMODULE'),
  ('win32com.shell.shellcon',
   'c:\\users\\wot-mahek\\.conda\\envs\\cutsomtf\\lib\\site-packages\\win32comext\\shell\\shellcon.py',
   'PYMODULE'),
  ('win32com.shell',
   'c:\\users\\wot-mahek\\.conda\\envs\\cutsomtf\\lib\\site-packages\\win32comext\\shell\\__init__.py',
   'PYMODULE'),
  ('pkg_resources._vendor.packaging._structures',
   'c:\\users\\wot-mahek\\.conda\\envs\\cutsomtf\\lib\\site-packages\\pkg_resources\\_vendor\\packaging\\_structures.py',
   'PYMODULE'),
  ('pkg_resources._vendor.packaging._compat',
   'c:\\users\\wot-mahek\\.conda\\envs\\cutsomtf\\lib\\site-packages\\pkg_resources\\_vendor\\packaging\\_compat.py',
   'PYMODULE'),
  ('pkg_resources._vendor.pyparsing',
   'c:\\users\\wot-mahek\\.conda\\envs\\cutsomtf\\lib\\site-packages\\pkg_resources\\_vendor\\pyparsing.py',
   'PYMODULE'),
  ('pkg_resources._vendor.packaging.tags',
   'c:\\users\\wot-mahek\\.conda\\envs\\cutsomtf\\lib\\site-packages\\pkg_resources\\_vendor\\packaging\\tags.py',
   'PYMODULE'),
  ('pkg_resources._vendor.packaging.specifiers',
   'c:\\users\\wot-mahek\\.conda\\envs\\cutsomtf\\lib\\site-packages\\pkg_resources\\_vendor\\packaging\\specifiers.py',
   'PYMODULE'),
  ('pkg_resources._vendor.packaging._typing',
   'c:\\users\\wot-mahek\\.conda\\envs\\cutsomtf\\lib\\site-packages\\pkg_resources\\_vendor\\packaging\\_typing.py',
   'PYMODULE'),
  ('pkg_resources._vendor.packaging',
   'c:\\users\\wot-mahek\\.conda\\envs\\cutsomtf\\lib\\site-packages\\pkg_resources\\_vendor\\packaging\\__init__.py',
   'PYMODULE'),
  ('pkg_resources._vendor.packaging.markers',
   'c:\\users\\wot-mahek\\.conda\\envs\\cutsomtf\\lib\\site-packages\\pkg_resources\\_vendor\\packaging\\markers.py',
   'PYMODULE'),
  ('pkg_resources._vendor',
   'c:\\users\\wot-mahek\\.conda\\envs\\cutsomtf\\lib\\site-packages\\pkg_resources\\_vendor\\__init__.py',
   'PYMODULE'),
  ('pkg_resources._vendor.packaging.version',
   'c:\\users\\wot-mahek\\.conda\\envs\\cutsomtf\\lib\\site-packages\\pkg_resources\\_vendor\\packaging\\version.py',
   'PYMODULE'),
  ('pkg_resources._vendor.packaging.requirements',
   'c:\\users\\wot-mahek\\.conda\\envs\\cutsomtf\\lib\\site-packages\\pkg_resources\\_vendor\\packaging\\requirements.py',
   'PYMODULE'),
  ('pkg_resources._vendor.packaging.__about__',
   'c:\\users\\wot-mahek\\.conda\\envs\\cutsomtf\\lib\\site-packages\\pkg_resources\\_vendor\\packaging\\__about__.py',
   'PYMODULE'),
  ('sysconfig',
   'c:\\users\\wot-mahek\\.conda\\envs\\cutsomtf\\lib\\sysconfig.py',
   'PYMODULE'),
  ('pkg_resources.extern',
   'c:\\users\\wot-mahek\\.conda\\envs\\cutsomtf\\lib\\site-packages\\pkg_resources\\extern\\__init__.py',
   'PYMODULE'),
  ('imp',
   'c:\\users\\wot-mahek\\.conda\\envs\\cutsomtf\\lib\\imp.py',
   'PYMODULE'),
  ('multiprocessing.popen_spawn_posix',
   'c:\\users\\wot-mahek\\.conda\\envs\\cutsomtf\\lib\\multiprocessing\\popen_spawn_posix.py',
   'PYMODULE'),
  ('multiprocessing.semaphore_tracker',
   'c:\\users\\wot-mahek\\.conda\\envs\\cutsomtf\\lib\\multiprocessing\\semaphore_tracker.py',
   'PYMODULE'),
  ('multiprocessing.util',
   'c:\\users\\wot-mahek\\.conda\\envs\\cutsomtf\\lib\\multiprocessing\\util.py',
   'PYMODULE'),
  ('multiprocessing.process',
   'c:\\users\\wot-mahek\\.conda\\envs\\cutsomtf\\lib\\multiprocessing\\process.py',
   'PYMODULE'),
  ('multiprocessing.context',
   'c:\\users\\wot-mahek\\.conda\\envs\\cutsomtf\\lib\\multiprocessing\\context.py',
   'PYMODULE'),
  ('multiprocessing.popen_forkserver',
   'c:\\users\\wot-mahek\\.conda\\envs\\cutsomtf\\lib\\multiprocessing\\popen_forkserver.py',
   'PYMODULE'),
  ('multiprocessing.forkserver',
   'c:\\users\\wot-mahek\\.conda\\envs\\cutsomtf\\lib\\multiprocessing\\forkserver.py',
   'PYMODULE'),
  ('multiprocessing.sharedctypes',
   'c:\\users\\wot-mahek\\.conda\\envs\\cutsomtf\\lib\\multiprocessing\\sharedctypes.py',
   'PYMODULE'),
  ('multiprocessing.heap',
   'c:\\users\\wot-mahek\\.conda\\envs\\cutsomtf\\lib\\multiprocessing\\heap.py',
   'PYMODULE'),
  ('multiprocessing.pool',
   'c:\\users\\wot-mahek\\.conda\\envs\\cutsomtf\\lib\\multiprocessing\\pool.py',
   'PYMODULE'),
  ('multiprocessing.dummy',
   'c:\\users\\wot-mahek\\.conda\\envs\\cutsomtf\\lib\\multiprocessing\\dummy\\__init__.py',
   'PYMODULE'),
  ('multiprocessing.dummy.connection',
   'c:\\users\\wot-mahek\\.conda\\envs\\cutsomtf\\lib\\multiprocessing\\dummy\\connection.py',
   'PYMODULE'),
  ('queue',
   'c:\\users\\wot-mahek\\.conda\\envs\\cutsomtf\\lib\\queue.py',
   'PYMODULE'),
  ('multiprocessing.queues',
   'c:\\users\\wot-mahek\\.conda\\envs\\cutsomtf\\lib\\multiprocessing\\queues.py',
   'PYMODULE'),
  ('multiprocessing.synchronize',
   'c:\\users\\wot-mahek\\.conda\\envs\\cutsomtf\\lib\\multiprocessing\\synchronize.py',
   'PYMODULE'),
  ('multiprocessing.connection',
   'c:\\users\\wot-mahek\\.conda\\envs\\cutsomtf\\lib\\multiprocessing\\connection.py',
   'PYMODULE'),
  ('multiprocessing.resource_sharer',
   'c:\\users\\wot-mahek\\.conda\\envs\\cutsomtf\\lib\\multiprocessing\\resource_sharer.py',
   'PYMODULE'),
  ('xmlrpc.client',
   'c:\\users\\wot-mahek\\.conda\\envs\\cutsomtf\\lib\\xmlrpc\\client.py',
   'PYMODULE'),
  ('xmlrpc',
   'c:\\users\\wot-mahek\\.conda\\envs\\cutsomtf\\lib\\xmlrpc\\__init__.py',
   'PYMODULE'),
  ('decimal',
   'c:\\users\\wot-mahek\\.conda\\envs\\cutsomtf\\lib\\decimal.py',
   'PYMODULE'),
  ('_pydecimal',
   'c:\\users\\wot-mahek\\.conda\\envs\\cutsomtf\\lib\\_pydecimal.py',
   'PYMODULE'),
  ('numbers',
   'c:\\users\\wot-mahek\\.conda\\envs\\cutsomtf\\lib\\numbers.py',
   'PYMODULE'),
  ('hmac',
   'c:\\users\\wot-mahek\\.conda\\envs\\cutsomtf\\lib\\hmac.py',
   'PYMODULE'),
  ('multiprocessing.managers',
   'c:\\users\\wot-mahek\\.conda\\envs\\cutsomtf\\lib\\multiprocessing\\managers.py',
   'PYMODULE'),
  ('multiprocessing.reduction',
   'c:\\users\\wot-mahek\\.conda\\envs\\cutsomtf\\lib\\multiprocessing\\reduction.py',
   'PYMODULE'),
  ('multiprocessing.popen_fork',
   'c:\\users\\wot-mahek\\.conda\\envs\\cutsomtf\\lib\\multiprocessing\\popen_fork.py',
   'PYMODULE'),
  ('multiprocessing.popen_spawn_win32',
   'c:\\users\\wot-mahek\\.conda\\envs\\cutsomtf\\lib\\multiprocessing\\popen_spawn_win32.py',
   'PYMODULE'),
  ('multiprocessing.spawn',
   'c:\\users\\wot-mahek\\.conda\\envs\\cutsomtf\\lib\\multiprocessing\\spawn.py',
   'PYMODULE'),
  ('runpy',
   'c:\\users\\wot-mahek\\.conda\\envs\\cutsomtf\\lib\\runpy.py',
   'PYMODULE'),
  ('multiprocessing',
   'c:\\users\\wot-mahek\\.conda\\envs\\cutsomtf\\lib\\multiprocessing\\__init__.py',
   'PYMODULE'),
  ('stringprep',
   'c:\\users\\wot-mahek\\.conda\\envs\\cutsomtf\\lib\\stringprep.py',
   'PYMODULE'),
  ('tracemalloc',
   'c:\\users\\wot-mahek\\.conda\\envs\\cutsomtf\\lib\\tracemalloc.py',
   'PYMODULE'),
  ('PyQt5',
   'c:\\users\\wot-mahek\\.conda\\envs\\cutsomtf\\lib\\site-packages\\PyQt5\\__init__.py',
   'PYMODULE'),
  ('os',
   'c:\\users\\wot-mahek\\.conda\\envs\\cutsomtf\\lib\\os.py',
   'PYMODULE'),
  ('get_screenshot', 'D:\\netra-desktopapp\\get_screenshot.py', 'PYMODULE'),
  ('PIL.Image',
   'c:\\users\\wot-mahek\\.conda\\envs\\cutsomtf\\lib\\site-packages\\PIL\\Image.py',
   'PYMODULE'),
  ('PIL.WmfImagePlugin',
   'c:\\users\\wot-mahek\\.conda\\envs\\cutsomtf\\lib\\site-packages\\PIL\\WmfImagePlugin.py',
   'PYMODULE'),
  ('PIL.ImageFile',
   'c:\\users\\wot-mahek\\.conda\\envs\\cutsomtf\\lib\\site-packages\\PIL\\ImageFile.py',
   'PYMODULE'),
  ('PIL.DdsImagePlugin',
   'c:\\users\\wot-mahek\\.conda\\envs\\cutsomtf\\lib\\site-packages\\PIL\\DdsImagePlugin.py',
   'PYMODULE'),
  ('PIL.MpoImagePlugin',
   'c:\\users\\wot-mahek\\.conda\\envs\\cutsomtf\\lib\\site-packages\\PIL\\MpoImagePlugin.py',
   'PYMODULE'),
  ('PIL.GribStubImagePlugin',
   'c:\\users\\wot-mahek\\.conda\\envs\\cutsomtf\\lib\\site-packages\\PIL\\GribStubImagePlugin.py',
   'PYMODULE'),
  ('PIL.Hdf5StubImagePlugin',
   'c:\\users\\wot-mahek\\.conda\\envs\\cutsomtf\\lib\\site-packages\\PIL\\Hdf5StubImagePlugin.py',
   'PYMODULE'),
  ('PIL.SgiImagePlugin',
   'c:\\users\\wot-mahek\\.conda\\envs\\cutsomtf\\lib\\site-packages\\PIL\\SgiImagePlugin.py',
   'PYMODULE'),
  ('PIL.PixarImagePlugin',
   'c:\\users\\wot-mahek\\.conda\\envs\\cutsomtf\\lib\\site-packages\\PIL\\PixarImagePlugin.py',
   'PYMODULE'),
  ('PIL.XVThumbImagePlugin',
   'c:\\users\\wot-mahek\\.conda\\envs\\cutsomtf\\lib\\site-packages\\PIL\\XVThumbImagePlugin.py',
   'PYMODULE'),
  ('PIL.PcxImagePlugin',
   'c:\\users\\wot-mahek\\.conda\\envs\\cutsomtf\\lib\\site-packages\\PIL\\PcxImagePlugin.py',
   'PYMODULE'),
  ('PIL.IcoImagePlugin',
   'c:\\users\\wot-mahek\\.conda\\envs\\cutsomtf\\lib\\site-packages\\PIL\\IcoImagePlugin.py',
   'PYMODULE'),
  ('PIL.IcnsImagePlugin',
   'c:\\users\\wot-mahek\\.conda\\envs\\cutsomtf\\lib\\site-packages\\PIL\\IcnsImagePlugin.py',
   'PYMODULE'),
  ('PIL.features',
   'c:\\users\\wot-mahek\\.conda\\envs\\cutsomtf\\lib\\site-packages\\PIL\\features.py',
   'PYMODULE'),
  ('PIL.SpiderImagePlugin',
   'c:\\users\\wot-mahek\\.conda\\envs\\cutsomtf\\lib\\site-packages\\PIL\\SpiderImagePlugin.py',
   'PYMODULE'),
  ('PIL.ImageTk',
   'c:\\users\\wot-mahek\\.conda\\envs\\cutsomtf\\lib\\site-packages\\PIL\\ImageTk.py',
   'PYMODULE'),
  ('PIL.GbrImagePlugin',
   'c:\\users\\wot-mahek\\.conda\\envs\\cutsomtf\\lib\\site-packages\\PIL\\GbrImagePlugin.py',
   'PYMODULE'),
  ('PIL.BufrStubImagePlugin',
   'c:\\users\\wot-mahek\\.conda\\envs\\cutsomtf\\lib\\site-packages\\PIL\\BufrStubImagePlugin.py',
   'PYMODULE'),
  ('PIL.DcxImagePlugin',
   'c:\\users\\wot-mahek\\.conda\\envs\\cutsomtf\\lib\\site-packages\\PIL\\DcxImagePlugin.py',
   'PYMODULE'),
  ('PIL.PsdImagePlugin',
   'c:\\users\\wot-mahek\\.conda\\envs\\cutsomtf\\lib\\site-packages\\PIL\\PsdImagePlugin.py',
   'PYMODULE'),
  ('PIL.TgaImagePlugin',
   'c:\\users\\wot-mahek\\.conda\\envs\\cutsomtf\\lib\\site-packages\\PIL\\TgaImagePlugin.py',
   'PYMODULE'),
  ('PIL.ImImagePlugin',
   'c:\\users\\wot-mahek\\.conda\\envs\\cutsomtf\\lib\\site-packages\\PIL\\ImImagePlugin.py',
   'PYMODULE'),
  ('PIL.PcdImagePlugin',
   'c:\\users\\wot-mahek\\.conda\\envs\\cutsomtf\\lib\\site-packages\\PIL\\PcdImagePlugin.py',
   'PYMODULE'),
  ('PIL.FpxImagePlugin',
   'c:\\users\\wot-mahek\\.conda\\envs\\cutsomtf\\lib\\site-packages\\PIL\\FpxImagePlugin.py',
   'PYMODULE'),
  ('olefile',
   'c:\\users\\wot-mahek\\.conda\\envs\\cutsomtf\\lib\\site-packages\\olefile\\__init__.py',
   'PYMODULE'),
  ('olefile.olefile',
   'c:\\users\\wot-mahek\\.conda\\envs\\cutsomtf\\lib\\site-packages\\olefile\\olefile.py',
   'PYMODULE'),
  ('PIL.Jpeg2KImagePlugin',
   'c:\\users\\wot-mahek\\.conda\\envs\\cutsomtf\\lib\\site-packages\\PIL\\Jpeg2KImagePlugin.py',
   'PYMODULE'),
  ('PIL.MicImagePlugin',
   'c:\\users\\wot-mahek\\.conda\\envs\\cutsomtf\\lib\\site-packages\\PIL\\MicImagePlugin.py',
   'PYMODULE'),
  ('PIL.McIdasImagePlugin',
   'c:\\users\\wot-mahek\\.conda\\envs\\cutsomtf\\lib\\site-packages\\PIL\\McIdasImagePlugin.py',
   'PYMODULE'),
  ('PIL.IptcImagePlugin',
   'c:\\users\\wot-mahek\\.conda\\envs\\cutsomtf\\lib\\site-packages\\PIL\\IptcImagePlugin.py',
   'PYMODULE'),
  ('PIL.FitsStubImagePlugin',
   'c:\\users\\wot-mahek\\.conda\\envs\\cutsomtf\\lib\\site-packages\\PIL\\FitsStubImagePlugin.py',
   'PYMODULE'),
  ('PIL.MpegImagePlugin',
   'c:\\users\\wot-mahek\\.conda\\envs\\cutsomtf\\lib\\site-packages\\PIL\\MpegImagePlugin.py',
   'PYMODULE'),
  ('PIL.XbmImagePlugin',
   'c:\\users\\wot-mahek\\.conda\\envs\\cutsomtf\\lib\\site-packages\\PIL\\XbmImagePlugin.py',
   'PYMODULE'),
  ('PIL.WebPImagePlugin',
   'c:\\users\\wot-mahek\\.conda\\envs\\cutsomtf\\lib\\site-packages\\PIL\\WebPImagePlugin.py',
   'PYMODULE'),
  ('PIL.PdfImagePlugin',
   'c:\\users\\wot-mahek\\.conda\\envs\\cutsomtf\\lib\\site-packages\\PIL\\PdfImagePlugin.py',
   'PYMODULE'),
  ('PIL.PdfParser',
   'c:\\users\\wot-mahek\\.conda\\envs\\cutsomtf\\lib\\site-packages\\PIL\\PdfParser.py',
   'PYMODULE'),
  ('PIL.ImageSequence',
   'c:\\users\\wot-mahek\\.conda\\envs\\cutsomtf\\lib\\site-packages\\PIL\\ImageSequence.py',
   'PYMODULE'),
  ('PIL.FliImagePlugin',
   'c:\\users\\wot-mahek\\.conda\\envs\\cutsomtf\\lib\\site-packages\\PIL\\FliImagePlugin.py',
   'PYMODULE'),
  ('PIL.FtexImagePlugin',
   'c:\\users\\wot-mahek\\.conda\\envs\\cutsomtf\\lib\\site-packages\\PIL\\FtexImagePlugin.py',
   'PYMODULE'),
  ('PIL.BlpImagePlugin',
   'c:\\users\\wot-mahek\\.conda\\envs\\cutsomtf\\lib\\site-packages\\PIL\\BlpImagePlugin.py',
   'PYMODULE'),
  ('PIL.PalmImagePlugin',
   'c:\\users\\wot-mahek\\.conda\\envs\\cutsomtf\\lib\\site-packages\\PIL\\PalmImagePlugin.py',
   'PYMODULE'),
  ('PIL.MspImagePlugin',
   'c:\\users\\wot-mahek\\.conda\\envs\\cutsomtf\\lib\\site-packages\\PIL\\MspImagePlugin.py',
   'PYMODULE'),
  ('PIL.EpsImagePlugin',
   'c:\\users\\wot-mahek\\.conda\\envs\\cutsomtf\\lib\\site-packages\\PIL\\EpsImagePlugin.py',
   'PYMODULE'),
  ('PIL.ImtImagePlugin',
   'c:\\users\\wot-mahek\\.conda\\envs\\cutsomtf\\lib\\site-packages\\PIL\\ImtImagePlugin.py',
   'PYMODULE'),
  ('PIL.XpmImagePlugin',
   'c:\\users\\wot-mahek\\.conda\\envs\\cutsomtf\\lib\\site-packages\\PIL\\XpmImagePlugin.py',
   'PYMODULE'),
  ('PIL.SunImagePlugin',
   'c:\\users\\wot-mahek\\.conda\\envs\\cutsomtf\\lib\\site-packages\\PIL\\SunImagePlugin.py',
   'PYMODULE'),
  ('PIL.CurImagePlugin',
   'c:\\users\\wot-mahek\\.conda\\envs\\cutsomtf\\lib\\site-packages\\PIL\\CurImagePlugin.py',
   'PYMODULE'),
  ('PIL.TiffImagePlugin',
   'c:\\users\\wot-mahek\\.conda\\envs\\cutsomtf\\lib\\site-packages\\PIL\\TiffImagePlugin.py',
   'PYMODULE'),
  ('fractions',
   'c:\\users\\wot-mahek\\.conda\\envs\\cutsomtf\\lib\\fractions.py',
   'PYMODULE'),
  ('PIL.ImageShow',
   'c:\\users\\wot-mahek\\.conda\\envs\\cutsomtf\\lib\\site-packages\\PIL\\ImageShow.py',
   'PYMODULE'),
  ('PIL.ImageQt',
   'c:\\users\\wot-mahek\\.conda\\envs\\cutsomtf\\lib\\site-packages\\PIL\\ImageQt.py',
   'PYMODULE'),
  ('PIL.ImageColor',
   'c:\\users\\wot-mahek\\.conda\\envs\\cutsomtf\\lib\\site-packages\\PIL\\ImageColor.py',
   'PYMODULE'),
  ('colorsys',
   'c:\\users\\wot-mahek\\.conda\\envs\\cutsomtf\\lib\\colorsys.py',
   'PYMODULE'),
  ('PIL.ImageFilter',
   'c:\\users\\wot-mahek\\.conda\\envs\\cutsomtf\\lib\\site-packages\\PIL\\ImageFilter.py',
   'PYMODULE'),
  ('PIL.PyAccess',
   'c:\\users\\wot-mahek\\.conda\\envs\\cutsomtf\\lib\\site-packages\\PIL\\PyAccess.py',
   'PYMODULE'),
  ('PIL.ImagePalette',
   'c:\\users\\wot-mahek\\.conda\\envs\\cutsomtf\\lib\\site-packages\\PIL\\ImagePalette.py',
   'PYMODULE'),
  ('PIL.PaletteFile',
   'c:\\users\\wot-mahek\\.conda\\envs\\cutsomtf\\lib\\site-packages\\PIL\\PaletteFile.py',
   'PYMODULE'),
  ('PIL.GimpPaletteFile',
   'c:\\users\\wot-mahek\\.conda\\envs\\cutsomtf\\lib\\site-packages\\PIL\\GimpPaletteFile.py',
   'PYMODULE'),
  ('PIL.GimpGradientFile',
   'c:\\users\\wot-mahek\\.conda\\envs\\cutsomtf\\lib\\site-packages\\PIL\\GimpGradientFile.py',
   'PYMODULE'),
  ('PIL.PngImagePlugin',
   'c:\\users\\wot-mahek\\.conda\\envs\\cutsomtf\\lib\\site-packages\\PIL\\PngImagePlugin.py',
   'PYMODULE'),
  ('PIL.ImageChops',
   'c:\\users\\wot-mahek\\.conda\\envs\\cutsomtf\\lib\\site-packages\\PIL\\ImageChops.py',
   'PYMODULE'),
  ('PIL.PpmImagePlugin',
   'c:\\users\\wot-mahek\\.conda\\envs\\cutsomtf\\lib\\site-packages\\PIL\\PpmImagePlugin.py',
   'PYMODULE'),
  ('PIL.JpegImagePlugin',
   'c:\\users\\wot-mahek\\.conda\\envs\\cutsomtf\\lib\\site-packages\\PIL\\JpegImagePlugin.py',
   'PYMODULE'),
  ('PIL.JpegPresets',
   'c:\\users\\wot-mahek\\.conda\\envs\\cutsomtf\\lib\\site-packages\\PIL\\JpegPresets.py',
   'PYMODULE'),
  ('PIL.GifImagePlugin',
   'c:\\users\\wot-mahek\\.conda\\envs\\cutsomtf\\lib\\site-packages\\PIL\\GifImagePlugin.py',
   'PYMODULE'),
  ('PIL.BmpImagePlugin',
   'c:\\users\\wot-mahek\\.conda\\envs\\cutsomtf\\lib\\site-packages\\PIL\\BmpImagePlugin.py',
   'PYMODULE'),
  ('cffi',
   'c:\\users\\wot-mahek\\.conda\\envs\\cutsomtf\\lib\\site-packages\\cffi\\__init__.py',
   'PYMODULE'),
  ('cffi.error',
   'c:\\users\\wot-mahek\\.conda\\envs\\cutsomtf\\lib\\site-packages\\cffi\\error.py',
   'PYMODULE'),
  ('cffi.api',
   'c:\\users\\wot-mahek\\.conda\\envs\\cutsomtf\\lib\\site-packages\\cffi\\api.py',
   'PYMODULE'),
  ('cffi.recompiler',
   'c:\\users\\wot-mahek\\.conda\\envs\\cutsomtf\\lib\\site-packages\\cffi\\recompiler.py',
   'PYMODULE'),
  ('distutils.command.build_ext',
   'c:\\users\\wot-mahek\\.conda\\envs\\cutsomtf\\lib\\distutils\\command\\build_ext.py',
   'PYMODULE'),
  ('distutils.command',
   'c:\\users\\wot-mahek\\.conda\\envs\\cutsomtf\\lib\\distutils\\command\\__init__.py',
   'PYMODULE'),
  ('distutils._msvccompiler',
   'c:\\users\\wot-mahek\\.conda\\envs\\cutsomtf\\lib\\distutils\\_msvccompiler.py',
   'PYMODULE'),
  ('concurrent.futures',
   'c:\\users\\wot-mahek\\.conda\\envs\\cutsomtf\\lib\\concurrent\\futures\\__init__.py',
   'PYMODULE'),
  ('concurrent.futures.thread',
   'c:\\users\\wot-mahek\\.conda\\envs\\cutsomtf\\lib\\concurrent\\futures\\thread.py',
   'PYMODULE'),
  ('concurrent.futures.process',
   'c:\\users\\wot-mahek\\.conda\\envs\\cutsomtf\\lib\\concurrent\\futures\\process.py',
   'PYMODULE'),
  ('concurrent.futures._base',
   'c:\\users\\wot-mahek\\.conda\\envs\\cutsomtf\\lib\\concurrent\\futures\\_base.py',
   'PYMODULE'),
  ('concurrent',
   'c:\\users\\wot-mahek\\.conda\\envs\\cutsomtf\\lib\\concurrent\\__init__.py',
   'PYMODULE'),
  ('site',
   'c:\\users\\wot-mahek\\.conda\\envs\\cutsomtf\\lib\\site-packages\\PyInstaller\\fake-modules\\site.py',
   'PYMODULE'),
  ('distutils.extension',
   'c:\\users\\wot-mahek\\.conda\\envs\\cutsomtf\\lib\\distutils\\extension.py',
   'PYMODULE'),
  ('distutils.core',
   'c:\\users\\wot-mahek\\.conda\\envs\\cutsomtf\\lib\\distutils\\core.py',
   'PYMODULE'),
  ('distutils.config',
   'c:\\users\\wot-mahek\\.conda\\envs\\cutsomtf\\lib\\distutils\\config.py',
   'PYMODULE'),
  ('cgi',
   'c:\\users\\wot-mahek\\.conda\\envs\\cutsomtf\\lib\\cgi.py',
   'PYMODULE'),
  ('configparser',
   'c:\\users\\wot-mahek\\.conda\\envs\\cutsomtf\\lib\\configparser.py',
   'PYMODULE'),
  ('distutils.cmd',
   'c:\\users\\wot-mahek\\.conda\\envs\\cutsomtf\\lib\\distutils\\cmd.py',
   'PYMODULE'),
  ('distutils.fancy_getopt',
   'c:\\users\\wot-mahek\\.conda\\envs\\cutsomtf\\lib\\distutils\\fancy_getopt.py',
   'PYMODULE'),
  ('distutils.dist',
   'c:\\users\\wot-mahek\\.conda\\envs\\cutsomtf\\lib\\distutils\\dist.py',
   'PYMODULE'),
  ('distutils.versionpredicate',
   'c:\\users\\wot-mahek\\.conda\\envs\\cutsomtf\\lib\\distutils\\versionpredicate.py',
   'PYMODULE'),
  ('distutils.version',
   'c:\\users\\wot-mahek\\.conda\\envs\\cutsomtf\\lib\\distutils\\version.py',
   'PYMODULE'),
  ('distutils.ccompiler',
   'c:\\users\\wot-mahek\\.conda\\envs\\cutsomtf\\lib\\distutils\\ccompiler.py',
   'PYMODULE'),
  ('distutils.msvc9compiler',
   'c:\\users\\wot-mahek\\.conda\\envs\\cutsomtf\\lib\\distutils\\msvc9compiler.py',
   'PYMODULE'),
  ('cffi.cffi_opcode',
   'c:\\users\\wot-mahek\\.conda\\envs\\cutsomtf\\lib\\site-packages\\cffi\\cffi_opcode.py',
   'PYMODULE'),
  ('cffi.verifier',
   'c:\\users\\wot-mahek\\.conda\\envs\\cutsomtf\\lib\\site-packages\\cffi\\verifier.py',
   'PYMODULE'),
  ('cffi.lock',
   'c:\\users\\wot-mahek\\.conda\\envs\\cutsomtf\\lib\\site-packages\\cffi\\lock.py',
   'PYMODULE'),
  ('cffi.pkgconfig',
   'c:\\users\\wot-mahek\\.conda\\envs\\cutsomtf\\lib\\site-packages\\cffi\\pkgconfig.py',
   'PYMODULE'),
  ('cffi.vengine_cpy',
   'c:\\users\\wot-mahek\\.conda\\envs\\cutsomtf\\lib\\site-packages\\cffi\\vengine_cpy.py',
   'PYMODULE'),
  ('cffi.vengine_gen',
   'c:\\users\\wot-mahek\\.conda\\envs\\cutsomtf\\lib\\site-packages\\cffi\\vengine_gen.py',
   'PYMODULE'),
  ('cffi.ffiplatform',
   'c:\\users\\wot-mahek\\.conda\\envs\\cutsomtf\\lib\\site-packages\\cffi\\ffiplatform.py',
   'PYMODULE'),
  ('setuptools',
   'c:\\users\\wot-mahek\\.conda\\envs\\cutsomtf\\lib\\site-packages\\setuptools\\__init__.py',
   'PYMODULE'),
  ('setuptools._vendor.packaging.version',
   'c:\\users\\wot-mahek\\.conda\\envs\\cutsomtf\\lib\\site-packages\\setuptools\\_vendor\\packaging\\version.py',
   'PYMODULE'),
  ('setuptools._vendor.packaging._typing',
   'c:\\users\\wot-mahek\\.conda\\envs\\cutsomtf\\lib\\site-packages\\setuptools\\_vendor\\packaging\\_typing.py',
   'PYMODULE'),
  ('setuptools._vendor.packaging.__about__',
   'c:\\users\\wot-mahek\\.conda\\envs\\cutsomtf\\lib\\site-packages\\setuptools\\_vendor\\packaging\\__about__.py',
   'PYMODULE'),
  ('setuptools._vendor.pyparsing',
   'c:\\users\\wot-mahek\\.conda\\envs\\cutsomtf\\lib\\site-packages\\setuptools\\_vendor\\pyparsing.py',
   'PYMODULE'),
  ('setuptools._vendor.packaging._structures',
   'c:\\users\\wot-mahek\\.conda\\envs\\cutsomtf\\lib\\site-packages\\setuptools\\_vendor\\packaging\\_structures.py',
   'PYMODULE'),
  ('setuptools._vendor.packaging.specifiers',
   'c:\\users\\wot-mahek\\.conda\\envs\\cutsomtf\\lib\\site-packages\\setuptools\\_vendor\\packaging\\specifiers.py',
   'PYMODULE'),
  ('setuptools._vendor.packaging.markers',
   'c:\\users\\wot-mahek\\.conda\\envs\\cutsomtf\\lib\\site-packages\\setuptools\\_vendor\\packaging\\markers.py',
   'PYMODULE'),
  ('setuptools._vendor.packaging.tags',
   'c:\\users\\wot-mahek\\.conda\\envs\\cutsomtf\\lib\\site-packages\\setuptools\\_vendor\\packaging\\tags.py',
   'PYMODULE'),
  ('setuptools._vendor.packaging',
   'c:\\users\\wot-mahek\\.conda\\envs\\cutsomtf\\lib\\site-packages\\setuptools\\_vendor\\packaging\\__init__.py',
   'PYMODULE'),
  ('setuptools._vendor.packaging.utils',
   'c:\\users\\wot-mahek\\.conda\\envs\\cutsomtf\\lib\\site-packages\\setuptools\\_vendor\\packaging\\utils.py',
   'PYMODULE'),
  ('setuptools._vendor',
   'c:\\users\\wot-mahek\\.conda\\envs\\cutsomtf\\lib\\site-packages\\setuptools\\_vendor\\__init__.py',
   'PYMODULE'),
  ('setuptools._vendor.packaging.requirements',
   'c:\\users\\wot-mahek\\.conda\\envs\\cutsomtf\\lib\\site-packages\\setuptools\\_vendor\\packaging\\requirements.py',
   'PYMODULE'),
  ('setuptools._vendor.ordered_set',
   'c:\\users\\wot-mahek\\.conda\\envs\\cutsomtf\\lib\\site-packages\\setuptools\\_vendor\\ordered_set.py',
   'PYMODULE'),
  ('setuptools._vendor.packaging._compat',
   'c:\\users\\wot-mahek\\.conda\\envs\\cutsomtf\\lib\\site-packages\\setuptools\\_vendor\\packaging\\_compat.py',
   'PYMODULE'),
  ('setuptools.msvc',
   'c:\\users\\wot-mahek\\.conda\\envs\\cutsomtf\\lib\\site-packages\\setuptools\\msvc.py',
   'PYMODULE'),
  ('setuptools.namespaces',
   'c:\\users\\wot-mahek\\.conda\\envs\\cutsomtf\\lib\\site-packages\\setuptools\\namespaces.py',
   'PYMODULE'),
  ('setuptools.monkey',
   'c:\\users\\wot-mahek\\.conda\\envs\\cutsomtf\\lib\\site-packages\\setuptools\\monkey.py',
   'PYMODULE'),
  ('setuptools.depends',
   'c:\\users\\wot-mahek\\.conda\\envs\\cutsomtf\\lib\\site-packages\\setuptools\\depends.py',
   'PYMODULE'),
  ('setuptools._imp',
   'c:\\users\\wot-mahek\\.conda\\envs\\cutsomtf\\lib\\site-packages\\setuptools\\_imp.py',
   'PYMODULE'),
  ('setuptools.py34compat',
   'c:\\users\\wot-mahek\\.conda\\envs\\cutsomtf\\lib\\site-packages\\setuptools\\py34compat.py',
   'PYMODULE'),
  ('setuptools.dist',
   'c:\\users\\wot-mahek\\.conda\\envs\\cutsomtf\\lib\\site-packages\\setuptools\\dist.py',
   'PYMODULE'),
  ('setuptools.installer',
   'c:\\users\\wot-mahek\\.conda\\envs\\cutsomtf\\lib\\site-packages\\setuptools\\installer.py',
   'PYMODULE'),
  ('setuptools.wheel',
   'c:\\users\\wot-mahek\\.conda\\envs\\cutsomtf\\lib\\site-packages\\setuptools\\wheel.py',
   'PYMODULE'),
  ('setuptools.command.egg_info',
   'c:\\users\\wot-mahek\\.conda\\envs\\cutsomtf\\lib\\site-packages\\setuptools\\command\\egg_info.py',
   'PYMODULE'),
  ('setuptools.glob',
   'c:\\users\\wot-mahek\\.conda\\envs\\cutsomtf\\lib\\site-packages\\setuptools\\glob.py',
   'PYMODULE'),
  ('setuptools.unicode_utils',
   'c:\\users\\wot-mahek\\.conda\\envs\\cutsomtf\\lib\\site-packages\\setuptools\\unicode_utils.py',
   'PYMODULE'),
  ('setuptools.command.bdist_egg',
   'c:\\users\\wot-mahek\\.conda\\envs\\cutsomtf\\lib\\site-packages\\setuptools\\command\\bdist_egg.py',
   'PYMODULE'),
  ('setuptools.command',
   'c:\\users\\wot-mahek\\.conda\\envs\\cutsomtf\\lib\\site-packages\\setuptools\\command\\__init__.py',
   'PYMODULE'),
  ('setuptools.command.install_scripts',
   'c:\\users\\wot-mahek\\.conda\\envs\\cutsomtf\\lib\\site-packages\\setuptools\\command\\install_scripts.py',
   'PYMODULE'),
  ('setuptools.command.easy_install',
   'c:\\users\\wot-mahek\\.conda\\envs\\cutsomtf\\lib\\site-packages\\setuptools\\command\\easy_install.py',
   'PYMODULE'),
  ('setuptools.package_index',
   'c:\\users\\wot-mahek\\.conda\\envs\\cutsomtf\\lib\\site-packages\\setuptools\\package_index.py',
   'PYMODULE'),
  ('setuptools.archive_util',
   'c:\\users\\wot-mahek\\.conda\\envs\\cutsomtf\\lib\\site-packages\\setuptools\\archive_util.py',
   'PYMODULE'),
  ('setuptools.sandbox',
   'c:\\users\\wot-mahek\\.conda\\envs\\cutsomtf\\lib\\site-packages\\setuptools\\sandbox.py',
   'PYMODULE'),
  ('distutils.command.build_scripts',
   'c:\\users\\wot-mahek\\.conda\\envs\\cutsomtf\\lib\\distutils\\command\\build_scripts.py',
   'PYMODULE'),
  ('distutils.command.install',
   'c:\\users\\wot-mahek\\.conda\\envs\\cutsomtf\\lib\\distutils\\command\\install.py',
   'PYMODULE'),
  ('distutils.command.install_scripts',
   'c:\\users\\wot-mahek\\.conda\\envs\\cutsomtf\\lib\\distutils\\command\\install_scripts.py',
   'PYMODULE'),
  ('distutils.command.bdist',
   'c:\\users\\wot-mahek\\.conda\\envs\\cutsomtf\\lib\\distutils\\command\\bdist.py',
   'PYMODULE'),
  ('setuptools.command.setopt',
   'c:\\users\\wot-mahek\\.conda\\envs\\cutsomtf\\lib\\site-packages\\setuptools\\command\\setopt.py',
   'PYMODULE'),
  ('setuptools.command.sdist',
   'c:\\users\\wot-mahek\\.conda\\envs\\cutsomtf\\lib\\site-packages\\setuptools\\command\\sdist.py',
   'PYMODULE'),
  ('setuptools.command.py36compat',
   'c:\\users\\wot-mahek\\.conda\\envs\\cutsomtf\\lib\\site-packages\\setuptools\\command\\py36compat.py',
   'PYMODULE'),
  ('distutils.command.sdist',
   'c:\\users\\wot-mahek\\.conda\\envs\\cutsomtf\\lib\\distutils\\command\\sdist.py',
   'PYMODULE'),
  ('setuptools.config',
   'c:\\users\\wot-mahek\\.conda\\envs\\cutsomtf\\lib\\site-packages\\setuptools\\config.py',
   'PYMODULE'),
  ('setuptools.extern',
   'c:\\users\\wot-mahek\\.conda\\envs\\cutsomtf\\lib\\site-packages\\setuptools\\extern\\__init__.py',
   'PYMODULE'),
  ('setuptools.ssl_support',
   'c:\\users\\wot-mahek\\.conda\\envs\\cutsomtf\\lib\\site-packages\\setuptools\\ssl_support.py',
   'PYMODULE'),
  ('wincertstore',
   'c:\\users\\wot-mahek\\.conda\\envs\\cutsomtf\\lib\\site-packages\\wincertstore.py',
   'PYMODULE'),
  ('ctypes.wintypes',
   'c:\\users\\wot-mahek\\.conda\\envs\\cutsomtf\\lib\\ctypes\\wintypes.py',
   'PYMODULE'),
  ('setuptools.windows_support',
   'c:\\users\\wot-mahek\\.conda\\envs\\cutsomtf\\lib\\site-packages\\setuptools\\windows_support.py',
   'PYMODULE'),
  ('setuptools.extension',
   'c:\\users\\wot-mahek\\.conda\\envs\\cutsomtf\\lib\\site-packages\\setuptools\\extension.py',
   'PYMODULE'),
  ('setuptools.version',
   'c:\\users\\wot-mahek\\.conda\\envs\\cutsomtf\\lib\\site-packages\\setuptools\\version.py',
   'PYMODULE'),
  ('setuptools._deprecation_warning',
   'c:\\users\\wot-mahek\\.conda\\envs\\cutsomtf\\lib\\site-packages\\setuptools\\_deprecation_warning.py',
   'PYMODULE'),
  ('_distutils_hack.override',
   'c:\\users\\wot-mahek\\.conda\\envs\\cutsomtf\\lib\\site-packages\\_distutils_hack\\override.py',
   'PYMODULE'),
  ('_distutils_hack',
   'c:\\users\\wot-mahek\\.conda\\envs\\cutsomtf\\lib\\site-packages\\_distutils_hack\\__init__.py',
   'PYMODULE'),
  ('cffi.cparser',
   'c:\\users\\wot-mahek\\.conda\\envs\\cutsomtf\\lib\\site-packages\\cffi\\cparser.py',
   'PYMODULE'),
  ('pycparser.lextab',
   'c:\\users\\wot-mahek\\.conda\\envs\\cutsomtf\\lib\\site-packages\\pycparser\\lextab.py',
   'PYMODULE'),
  ('pycparser.yacctab',
   'c:\\users\\wot-mahek\\.conda\\envs\\cutsomtf\\lib\\site-packages\\pycparser\\yacctab.py',
   'PYMODULE'),
  ('pycparser',
   'c:\\users\\wot-mahek\\.conda\\envs\\cutsomtf\\lib\\site-packages\\pycparser\\__init__.py',
   'PYMODULE'),
  ('pycparser.c_parser',
   'c:\\users\\wot-mahek\\.conda\\envs\\cutsomtf\\lib\\site-packages\\pycparser\\c_parser.py',
   'PYMODULE'),
  ('pycparser.ast_transforms',
   'c:\\users\\wot-mahek\\.conda\\envs\\cutsomtf\\lib\\site-packages\\pycparser\\ast_transforms.py',
   'PYMODULE'),
  ('pycparser.plyparser',
   'c:\\users\\wot-mahek\\.conda\\envs\\cutsomtf\\lib\\site-packages\\pycparser\\plyparser.py',
   'PYMODULE'),
  ('pycparser.c_lexer',
   'c:\\users\\wot-mahek\\.conda\\envs\\cutsomtf\\lib\\site-packages\\pycparser\\c_lexer.py',
   'PYMODULE'),
  ('pycparser.ply.lex',
   'c:\\users\\wot-mahek\\.conda\\envs\\cutsomtf\\lib\\site-packages\\pycparser\\ply\\lex.py',
   'PYMODULE'),
  ('pycparser.ply.yacc',
   'c:\\users\\wot-mahek\\.conda\\envs\\cutsomtf\\lib\\site-packages\\pycparser\\ply\\yacc.py',
   'PYMODULE'),
  ('pycparser.ply',
   'c:\\users\\wot-mahek\\.conda\\envs\\cutsomtf\\lib\\site-packages\\pycparser\\ply\\__init__.py',
   'PYMODULE'),
  ('pycparser.c_ast',
   'c:\\users\\wot-mahek\\.conda\\envs\\cutsomtf\\lib\\site-packages\\pycparser\\c_ast.py',
   'PYMODULE'),
  ('cffi.commontypes',
   'c:\\users\\wot-mahek\\.conda\\envs\\cutsomtf\\lib\\site-packages\\cffi\\commontypes.py',
   'PYMODULE'),
  ('cffi.model',
   'c:\\users\\wot-mahek\\.conda\\envs\\cutsomtf\\lib\\site-packages\\cffi\\model.py',
   'PYMODULE'),
  ('PIL._util',
   'c:\\users\\wot-mahek\\.conda\\envs\\cutsomtf\\lib\\site-packages\\PIL\\_util.py',
   'PYMODULE'),
  ('PIL._binary',
   'c:\\users\\wot-mahek\\.conda\\envs\\cutsomtf\\lib\\site-packages\\PIL\\_binary.py',
   'PYMODULE'),
  ('PIL.TiffTags',
   'c:\\users\\wot-mahek\\.conda\\envs\\cutsomtf\\lib\\site-packages\\PIL\\TiffTags.py',
   'PYMODULE'),
  ('PIL.ImageMode',
   'c:\\users\\wot-mahek\\.conda\\envs\\cutsomtf\\lib\\site-packages\\PIL\\ImageMode.py',
   'PYMODULE'),
  ('pathlib',
   'c:\\users\\wot-mahek\\.conda\\envs\\cutsomtf\\lib\\pathlib.py',
   'PYMODULE'),
  ('xml.etree.ElementTree',
   'c:\\users\\wot-mahek\\.conda\\envs\\cutsomtf\\lib\\xml\\etree\\ElementTree.py',
   'PYMODULE'),
  ('xml.etree.cElementTree',
   'c:\\users\\wot-mahek\\.conda\\envs\\cutsomtf\\lib\\xml\\etree\\cElementTree.py',
   'PYMODULE'),
  ('xml.etree.ElementInclude',
   'c:\\users\\wot-mahek\\.conda\\envs\\cutsomtf\\lib\\xml\\etree\\ElementInclude.py',
   'PYMODULE'),
  ('xml.etree.ElementPath',
   'c:\\users\\wot-mahek\\.conda\\envs\\cutsomtf\\lib\\xml\\etree\\ElementPath.py',
   'PYMODULE'),
  ('xml.etree',
   'c:\\users\\wot-mahek\\.conda\\envs\\cutsomtf\\lib\\xml\\etree\\__init__.py',
   'PYMODULE'),
  ('PIL',
   'c:\\users\\wot-mahek\\.conda\\envs\\cutsomtf\\lib\\site-packages\\PIL\\__init__.py',
   'PYMODULE'),
  ('PIL._version',
   'c:\\users\\wot-mahek\\.conda\\envs\\cutsomtf\\lib\\site-packages\\PIL\\_version.py',
   'PYMODULE'),
  ('path_to_folder', 'D:\\netra-desktopapp\\path_to_folder.py', 'PYMODULE'),
  ('threading',
   'c:\\users\\wot-mahek\\.conda\\envs\\cutsomtf\\lib\\threading.py',
   'PYMODULE'),
  ('_threading_local',
   'c:\\users\\wot-mahek\\.conda\\envs\\cutsomtf\\lib\\_threading_local.py',
   'PYMODULE'),
  ('json',
   'c:\\users\\wot-mahek\\.conda\\envs\\cutsomtf\\lib\\json\\__init__.py',
   'PYMODULE'),
  ('json.encoder',
   'c:\\users\\wot-mahek\\.conda\\envs\\cutsomtf\\lib\\json\\encoder.py',
   'PYMODULE'),
  ('json.decoder',
   'c:\\users\\wot-mahek\\.conda\\envs\\cutsomtf\\lib\\json\\decoder.py',
   'PYMODULE'),
  ('json.scanner',
   'c:\\users\\wot-mahek\\.conda\\envs\\cutsomtf\\lib\\json\\scanner.py',
   'PYMODULE'),
  ('get_processes', 'D:\\netra-desktopapp\\get_processes.py', 'PYMODULE'),
  ('default_settings', 'D:\\netra-desktopapp\\default_settings.py', 'PYMODULE'),
  ('details_window', 'D:\\netra-desktopapp\\details_window.py', 'PYMODULE'),
  ('settings_options', 'D:\\netra-desktopapp\\settings_options.py', 'PYMODULE'),
  ('settings_window', 'D:\\netra-desktopapp\\settings_window.py', 'PYMODULE'),
  ('main_window', 'D:\\netra-desktopapp\\main_window.py', 'PYMODULE')])
