('c:\\users\\wot-mahek\\.conda\\envs\\cutsomtf\\lib\\site-packages\\comtypes-1.1.9-py3.6.egg',
 None,
 {'*.pyd', '*.cp36-win_amd64.pyd', 'EGG-INFO', '*.pyc', '*.pyw', '*.py'},
 'DATA',
 [('comtypes\\test\\mylib.idl',
   'c:\\users\\wot-mahek\\.conda\\envs\\cutsomtf\\lib\\site-packages\\comtypes-1.1.9-py3.6.egg\\comtypes\\test\\mylib.idl',
   'DATA'),
  ('comtypes\\test\\mytypelib.idl',
   'c:\\users\\wot-mahek\\.conda\\envs\\cutsomtf\\lib\\site-packages\\comtypes-1.1.9-py3.6.egg\\comtypes\\test\\mytypelib.idl',
   'DATA'),
  ('comtypes\\test\\TestComServer.idl',
   'c:\\users\\wot-mahek\\.conda\\envs\\cutsomtf\\lib\\site-packages\\comtypes-1.1.9-py3.6.egg\\comtypes\\test\\TestComServer.idl',
   'DATA'),
  ('comtypes\\test\\TestComServer.tlb',
   'c:\\users\\wot-mahek\\.conda\\envs\\cutsomtf\\lib\\site-packages\\comtypes-1.1.9-py3.6.egg\\comtypes\\test\\TestComServer.tlb',
   'DATA'),
  ('comtypes\\test\\TestDispServer.idl',
   'c:\\users\\wot-mahek\\.conda\\envs\\cutsomtf\\lib\\site-packages\\comtypes-1.1.9-py3.6.egg\\comtypes\\test\\TestDispServer.idl',
   'DATA'),
  ('comtypes\\test\\TestDispServer.tlb',
   'c:\\users\\wot-mahek\\.conda\\envs\\cutsomtf\\lib\\site-packages\\comtypes-1.1.9-py3.6.egg\\comtypes\\test\\TestDispServer.tlb',
   'DATA'),
  ('comtypes\\test\\test_jscript.js',
   'c:\\users\\wot-mahek\\.conda\\envs\\cutsomtf\\lib\\site-packages\\comtypes-1.1.9-py3.6.egg\\comtypes\\test\\test_jscript.js',
   'DATA')])
