([('win.exe',
   'D:\\netra-desktopapp\\.pyupdater\\work\\win\\win.exe',
   'EXECUTABLE'),
  ('win.exe.manifest',
   'D:\\netra-desktopapp\\.pyupdater\\work\\win\\win.exe.manifest',
   'BINARY'),
  ('api-ms-win-crt-math-l1-1-0.dll',
   'c:\\users\\wot-mahek\\.conda\\envs\\cutsomtf\\api-ms-win-crt-math-l1-1-0.dll',
   'BINARY'),
  ('api-ms-win-crt-stdio-l1-1-0.dll',
   'c:\\users\\wot-mahek\\.conda\\envs\\cutsomtf\\api-ms-win-crt-stdio-l1-1-0.dll',
   'BINARY'),
  ('api-ms-win-crt-locale-l1-1-0.dll',
   'c:\\users\\wot-mahek\\.conda\\envs\\cutsomtf\\api-ms-win-crt-locale-l1-1-0.dll',
   'BINARY'),
  ('api-ms-win-crt-heap-l1-1-0.dll',
   'c:\\users\\wot-mahek\\.conda\\envs\\cutsomtf\\api-ms-win-crt-heap-l1-1-0.dll',
   'BINARY'),
  ('python36.dll',
   'c:\\users\\wot-mahek\\.conda\\envs\\cutsomtf\\python36.dll',
   'BINARY'),
  ('VCRUNTIME140.dll',
   'c:\\users\\wot-mahek\\.conda\\envs\\cutsomtf\\VCRUNTIME140.dll',
   'BINARY'),
  ('api-ms-win-crt-runtime-l1-1-0.dll',
   'c:\\users\\wot-mahek\\.conda\\envs\\cutsomtf\\api-ms-win-crt-runtime-l1-1-0.dll',
   'BINARY'),
  ('ucrtbase.dll',
   'c:\\users\\wot-mahek\\.conda\\envs\\cutsomtf\\ucrtbase.dll',
   'BINARY'),
  ('api-ms-win-crt-time-l1-1-0.dll',
   'c:\\users\\wot-mahek\\.conda\\envs\\cutsomtf\\api-ms-win-crt-time-l1-1-0.dll',
   'BINARY'),
  ('api-ms-win-crt-process-l1-1-0.dll',
   'c:\\users\\wot-mahek\\.conda\\envs\\cutsomtf\\api-ms-win-crt-process-l1-1-0.dll',
   'BINARY'),
  ('api-ms-win-crt-conio-l1-1-0.dll',
   'c:\\users\\wot-mahek\\.conda\\envs\\cutsomtf\\api-ms-win-crt-conio-l1-1-0.dll',
   'BINARY'),
  ('api-ms-win-crt-filesystem-l1-1-0.dll',
   'c:\\users\\wot-mahek\\.conda\\envs\\cutsomtf\\api-ms-win-crt-filesystem-l1-1-0.dll',
   'BINARY'),
  ('api-ms-win-crt-string-l1-1-0.dll',
   'c:\\users\\wot-mahek\\.conda\\envs\\cutsomtf\\api-ms-win-crt-string-l1-1-0.dll',
   'BINARY'),
  ('api-ms-win-crt-convert-l1-1-0.dll',
   'c:\\users\\wot-mahek\\.conda\\envs\\cutsomtf\\api-ms-win-crt-convert-l1-1-0.dll',
   'BINARY'),
  ('api-ms-win-crt-environment-l1-1-0.dll',
   'c:\\users\\wot-mahek\\.conda\\envs\\cutsomtf\\api-ms-win-crt-environment-l1-1-0.dll',
   'BINARY'),
  ('api-ms-win-core-profile-l1-1-0.dll',
   'c:\\users\\wot-mahek\\.conda\\envs\\cutsomtf\\api-ms-win-core-profile-l1-1-0.dll',
   'BINARY'),
  ('api-ms-win-core-namedpipe-l1-1-0.dll',
   'c:\\users\\wot-mahek\\.conda\\envs\\cutsomtf\\api-ms-win-core-namedpipe-l1-1-0.dll',
   'BINARY'),
  ('api-ms-win-core-file-l1-1-0.dll',
   'c:\\users\\wot-mahek\\.conda\\envs\\cutsomtf\\api-ms-win-core-file-l1-1-0.dll',
   'BINARY'),
  ('api-ms-win-core-processenvironment-l1-1-0.dll',
   'c:\\users\\wot-mahek\\.conda\\envs\\cutsomtf\\api-ms-win-core-processenvironment-l1-1-0.dll',
   'BINARY'),
  ('api-ms-win-core-string-l1-1-0.dll',
   'c:\\users\\wot-mahek\\.conda\\envs\\cutsomtf\\api-ms-win-core-string-l1-1-0.dll',
   'BINARY'),
  ('api-ms-win-core-interlocked-l1-1-0.dll',
   'c:\\users\\wot-mahek\\.conda\\envs\\cutsomtf\\api-ms-win-core-interlocked-l1-1-0.dll',
   'BINARY'),
  ('api-ms-win-core-localization-l1-2-0.dll',
   'c:\\users\\wot-mahek\\.conda\\envs\\cutsomtf\\api-ms-win-core-localization-l1-2-0.dll',
   'BINARY'),
  ('api-ms-win-core-handle-l1-1-0.dll',
   'c:\\users\\wot-mahek\\.conda\\envs\\cutsomtf\\api-ms-win-core-handle-l1-1-0.dll',
   'BINARY'),
  ('api-ms-win-core-memory-l1-1-0.dll',
   'c:\\users\\wot-mahek\\.conda\\envs\\cutsomtf\\api-ms-win-core-memory-l1-1-0.dll',
   'BINARY'),
  ('api-ms-win-core-util-l1-1-0.dll',
   'c:\\users\\wot-mahek\\.conda\\envs\\cutsomtf\\api-ms-win-core-util-l1-1-0.dll',
   'BINARY'),
  ('api-ms-win-core-processthreads-l1-1-0.dll',
   'c:\\users\\wot-mahek\\.conda\\envs\\cutsomtf\\api-ms-win-core-processthreads-l1-1-0.dll',
   'BINARY'),
  ('api-ms-win-core-libraryloader-l1-1-0.dll',
   'c:\\users\\wot-mahek\\.conda\\envs\\cutsomtf\\api-ms-win-core-libraryloader-l1-1-0.dll',
   'BINARY'),
  ('api-ms-win-core-errorhandling-l1-1-0.dll',
   'c:\\users\\wot-mahek\\.conda\\envs\\cutsomtf\\api-ms-win-core-errorhandling-l1-1-0.dll',
   'BINARY'),
  ('api-ms-win-core-heap-l1-1-0.dll',
   'c:\\users\\wot-mahek\\.conda\\envs\\cutsomtf\\api-ms-win-core-heap-l1-1-0.dll',
   'BINARY'),
  ('api-ms-win-core-timezone-l1-1-0.dll',
   'c:\\users\\wot-mahek\\.conda\\envs\\cutsomtf\\api-ms-win-core-timezone-l1-1-0.dll',
   'BINARY'),
  ('api-ms-win-core-rtlsupport-l1-1-0.dll',
   'c:\\users\\wot-mahek\\.conda\\envs\\cutsomtf\\api-ms-win-core-rtlsupport-l1-1-0.dll',
   'BINARY'),
  ('api-ms-win-core-processthreads-l1-1-1.dll',
   'c:\\users\\wot-mahek\\.conda\\envs\\cutsomtf\\api-ms-win-core-processthreads-l1-1-1.dll',
   'BINARY'),
  ('api-ms-win-core-console-l1-1-0.dll',
   'c:\\users\\wot-mahek\\.conda\\envs\\cutsomtf\\api-ms-win-core-console-l1-1-0.dll',
   'BINARY'),
  ('api-ms-win-core-debug-l1-1-0.dll',
   'c:\\users\\wot-mahek\\.conda\\envs\\cutsomtf\\api-ms-win-core-debug-l1-1-0.dll',
   'BINARY'),
  ('api-ms-win-core-file-l1-2-0.dll',
   'c:\\users\\wot-mahek\\.conda\\envs\\cutsomtf\\api-ms-win-core-file-l1-2-0.dll',
   'BINARY'),
  ('api-ms-win-core-file-l2-1-0.dll',
   'c:\\users\\wot-mahek\\.conda\\envs\\cutsomtf\\api-ms-win-core-file-l2-1-0.dll',
   'BINARY'),
  ('api-ms-win-core-sysinfo-l1-1-0.dll',
   'c:\\users\\wot-mahek\\.conda\\envs\\cutsomtf\\api-ms-win-core-sysinfo-l1-1-0.dll',
   'BINARY'),
  ('api-ms-win-core-synch-l1-1-0.dll',
   'c:\\users\\wot-mahek\\.conda\\envs\\cutsomtf\\api-ms-win-core-synch-l1-1-0.dll',
   'BINARY'),
  ('api-ms-win-core-datetime-l1-1-0.dll',
   'c:\\users\\wot-mahek\\.conda\\envs\\cutsomtf\\api-ms-win-core-datetime-l1-1-0.dll',
   'BINARY'),
  ('api-ms-win-core-synch-l1-2-0.dll',
   'c:\\users\\wot-mahek\\.conda\\envs\\cutsomtf\\api-ms-win-core-synch-l1-2-0.dll',
   'BINARY'),
  ('pywintypes36.dll',
   'c:\\users\\wot-mahek\\.conda\\envs\\cutsomtf\\lib\\site-packages\\pywin32_system32\\pywintypes36.dll',
   'BINARY'),
  ('PyQt5\\Qt\\plugins\\imageformats\\qjpeg.dll',
   'C:\\users\\wot-mahek\\.conda\\envs\\cutsomtf\\lib\\site-packages\\PyQt5\\Qt\\plugins\\imageformats\\qjpeg.dll',
   'BINARY'),
  ('PyQt5\\Qt\\plugins\\imageformats\\qtiff.dll',
   'C:\\users\\wot-mahek\\.conda\\envs\\cutsomtf\\lib\\site-packages\\PyQt5\\Qt\\plugins\\imageformats\\qtiff.dll',
   'BINARY'),
  ('PyQt5\\Qt\\plugins\\platforms\\qoffscreen.dll',
   'C:\\users\\wot-mahek\\.conda\\envs\\cutsomtf\\lib\\site-packages\\PyQt5\\Qt\\plugins\\platforms\\qoffscreen.dll',
   'BINARY'),
  ('d3dcompiler_47.dll',
   'C:\\users\\wot-mahek\\.conda\\envs\\cutsomtf\\lib\\site-packages\\PyQt5\\Qt\\bin\\d3dcompiler_47.dll',
   'BINARY'),
  ('libGLESv2.dll',
   'C:\\users\\wot-mahek\\.conda\\envs\\cutsomtf\\lib\\site-packages\\PyQt5\\Qt\\bin\\libGLESv2.dll',
   'BINARY'),
  ('PyQt5\\Qt\\plugins\\imageformats\\qsvg.dll',
   'C:\\users\\wot-mahek\\.conda\\envs\\cutsomtf\\lib\\site-packages\\PyQt5\\Qt\\plugins\\imageformats\\qsvg.dll',
   'BINARY'),
  ('PyQt5\\Qt\\plugins\\imageformats\\qtga.dll',
   'C:\\users\\wot-mahek\\.conda\\envs\\cutsomtf\\lib\\site-packages\\PyQt5\\Qt\\plugins\\imageformats\\qtga.dll',
   'BINARY'),
  ('PyQt5\\Qt\\plugins\\platforms\\qwindows.dll',
   'C:\\users\\wot-mahek\\.conda\\envs\\cutsomtf\\lib\\site-packages\\PyQt5\\Qt\\plugins\\platforms\\qwindows.dll',
   'BINARY'),
  ('PyQt5\\Qt\\plugins\\imageformats\\qicns.dll',
   'C:\\users\\wot-mahek\\.conda\\envs\\cutsomtf\\lib\\site-packages\\PyQt5\\Qt\\plugins\\imageformats\\qicns.dll',
   'BINARY'),
  ('PyQt5\\Qt\\plugins\\iconengines\\qsvgicon.dll',
   'C:\\users\\wot-mahek\\.conda\\envs\\cutsomtf\\lib\\site-packages\\PyQt5\\Qt\\plugins\\iconengines\\qsvgicon.dll',
   'BINARY'),
  ('PyQt5\\Qt\\plugins\\platforms\\qminimal.dll',
   'C:\\users\\wot-mahek\\.conda\\envs\\cutsomtf\\lib\\site-packages\\PyQt5\\Qt\\plugins\\platforms\\qminimal.dll',
   'BINARY'),
  ('PyQt5\\Qt\\plugins\\imageformats\\qgif.dll',
   'C:\\users\\wot-mahek\\.conda\\envs\\cutsomtf\\lib\\site-packages\\PyQt5\\Qt\\plugins\\imageformats\\qgif.dll',
   'BINARY'),
  ('pythoncom36.dll',
   'c:\\users\\wot-mahek\\.conda\\envs\\cutsomtf\\lib\\site-packages\\pywin32_system32\\pythoncom36.dll',
   'BINARY'),
  ('PyQt5\\Qt\\plugins\\imageformats\\qico.dll',
   'C:\\users\\wot-mahek\\.conda\\envs\\cutsomtf\\lib\\site-packages\\PyQt5\\Qt\\plugins\\imageformats\\qico.dll',
   'BINARY'),
  ('PyQt5\\Qt\\plugins\\styles\\qwindowsvistastyle.dll',
   'C:\\users\\wot-mahek\\.conda\\envs\\cutsomtf\\lib\\site-packages\\PyQt5\\Qt\\plugins\\styles\\qwindowsvistastyle.dll',
   'BINARY'),
  ('PyQt5\\Qt\\plugins\\platformthemes\\qxdgdesktopportal.dll',
   'C:\\users\\wot-mahek\\.conda\\envs\\cutsomtf\\lib\\site-packages\\PyQt5\\Qt\\plugins\\platformthemes\\qxdgdesktopportal.dll',
   'BINARY'),
  ('opengl32sw.dll',
   'C:\\users\\wot-mahek\\.conda\\envs\\cutsomtf\\lib\\site-packages\\PyQt5\\Qt\\bin\\opengl32sw.dll',
   'BINARY'),
  ('PyQt5\\Qt\\plugins\\imageformats\\qwbmp.dll',
   'C:\\users\\wot-mahek\\.conda\\envs\\cutsomtf\\lib\\site-packages\\PyQt5\\Qt\\plugins\\imageformats\\qwbmp.dll',
   'BINARY'),
  ('PyQt5\\Qt\\plugins\\imageformats\\qwebp.dll',
   'C:\\users\\wot-mahek\\.conda\\envs\\cutsomtf\\lib\\site-packages\\PyQt5\\Qt\\plugins\\imageformats\\qwebp.dll',
   'BINARY'),
  ('PyQt5\\Qt\\plugins\\platforms\\qwebgl.dll',
   'C:\\users\\wot-mahek\\.conda\\envs\\cutsomtf\\lib\\site-packages\\PyQt5\\Qt\\plugins\\platforms\\qwebgl.dll',
   'BINARY'),
  ('libEGL.dll',
   'C:\\users\\wot-mahek\\.conda\\envs\\cutsomtf\\lib\\site-packages\\PyQt5\\Qt\\bin\\libEGL.dll',
   'BINARY'),
  ('win32trace',
   'c:\\users\\wot-mahek\\.conda\\envs\\cutsomtf\\lib\\site-packages\\win32\\win32trace.pyd',
   'EXTENSION'),
  ('win32ui',
   'c:\\users\\wot-mahek\\.conda\\envs\\cutsomtf\\lib\\site-packages\\Pythonwin\\win32ui.pyd',
   'EXTENSION'),
  ('_lzma',
   'c:\\users\\wot-mahek\\.conda\\envs\\cutsomtf\\DLLs\\_lzma.pyd',
   'EXTENSION'),
  ('_bz2',
   'c:\\users\\wot-mahek\\.conda\\envs\\cutsomtf\\DLLs\\_bz2.pyd',
   'EXTENSION'),
  ('_socket',
   'c:\\users\\wot-mahek\\.conda\\envs\\cutsomtf\\DLLs\\_socket.pyd',
   'EXTENSION'),
  ('select',
   'c:\\users\\wot-mahek\\.conda\\envs\\cutsomtf\\DLLs\\select.pyd',
   'EXTENSION'),
  ('_hashlib',
   'c:\\users\\wot-mahek\\.conda\\envs\\cutsomtf\\DLLs\\_hashlib.pyd',
   'EXTENSION'),
  ('_ssl',
   'c:\\users\\wot-mahek\\.conda\\envs\\cutsomtf\\DLLs\\_ssl.pyd',
   'EXTENSION'),
  ('unicodedata',
   'c:\\users\\wot-mahek\\.conda\\envs\\cutsomtf\\DLLs\\unicodedata.pyd',
   'EXTENSION'),
  ('pyexpat',
   'c:\\users\\wot-mahek\\.conda\\envs\\cutsomtf\\DLLs\\pyexpat.pyd',
   'EXTENSION'),
  ('_win32sysloader',
   'c:\\users\\wot-mahek\\.conda\\envs\\cutsomtf\\lib\\site-packages\\win32\\_win32sysloader.pyd',
   'EXTENSION'),
  ('win32api',
   'c:\\users\\wot-mahek\\.conda\\envs\\cutsomtf\\lib\\site-packages\\win32\\win32api.pyd',
   'EXTENSION'),
  ('_ctypes',
   'c:\\users\\wot-mahek\\.conda\\envs\\cutsomtf\\DLLs\\_ctypes.pyd',
   'EXTENSION'),
  ('win32wnet',
   'c:\\users\\wot-mahek\\.conda\\envs\\cutsomtf\\lib\\site-packages\\win32\\win32wnet.pyd',
   'EXTENSION'),
  ('win32com.shell.shell',
   'c:\\users\\wot-mahek\\.conda\\envs\\cutsomtf\\lib\\site-packages\\win32comext\\shell\\shell.pyd',
   'EXTENSION'),
  ('_multiprocessing',
   'c:\\users\\wot-mahek\\.conda\\envs\\cutsomtf\\DLLs\\_multiprocessing.pyd',
   'EXTENSION'),
  ('_decimal',
   'c:\\users\\wot-mahek\\.conda\\envs\\cutsomtf\\DLLs\\_decimal.pyd',
   'EXTENSION'),
  ('PyQt5.QtCore',
   'c:\\users\\wot-mahek\\.conda\\envs\\cutsomtf\\lib\\site-packages\\PyQt5\\QtCore.pyd',
   'EXTENSION'),
  ('PyQt5.sip',
   'c:\\users\\wot-mahek\\.conda\\envs\\cutsomtf\\lib\\site-packages\\PyQt5\\sip.cp36-win_amd64.pyd',
   'EXTENSION'),
  ('sip',
   'c:\\users\\wot-mahek\\.conda\\envs\\cutsomtf\\lib\\site-packages\\sip.pyd',
   'EXTENSION'),
  ('PyQt5.QtGui',
   'c:\\users\\wot-mahek\\.conda\\envs\\cutsomtf\\lib\\site-packages\\PyQt5\\QtGui.pyd',
   'EXTENSION'),
  ('PIL._imagingtk',
   'c:\\users\\wot-mahek\\.conda\\envs\\cutsomtf\\lib\\site-packages\\PIL\\_imagingtk.cp36-win_amd64.pyd',
   'EXTENSION'),
  ('_distutils_findvs',
   'c:\\users\\wot-mahek\\.conda\\envs\\cutsomtf\\DLLs\\_distutils_findvs.pyd',
   'EXTENSION'),
  ('_cffi_backend',
   'c:\\users\\wot-mahek\\.conda\\envs\\cutsomtf\\lib\\site-packages\\_cffi_backend.cp36-win_amd64.pyd',
   'EXTENSION'),
  ('PIL._imaging',
   'c:\\users\\wot-mahek\\.conda\\envs\\cutsomtf\\lib\\site-packages\\PIL\\_imaging.cp36-win_amd64.pyd',
   'EXTENSION'),
  ('_elementtree',
   'c:\\users\\wot-mahek\\.conda\\envs\\cutsomtf\\DLLs\\_elementtree.pyd',
   'EXTENSION'),
  ('win32gui',
   'c:\\users\\wot-mahek\\.conda\\envs\\cutsomtf\\lib\\site-packages\\win32\\win32gui.pyd',
   'EXTENSION'),
  ('PyQt5.QtWidgets',
   'c:\\users\\wot-mahek\\.conda\\envs\\cutsomtf\\lib\\site-packages\\PyQt5\\QtWidgets.pyd',
   'EXTENSION'),
  ('Qt5Core.dll',
   'c:\\users\\wot-mahek\\.conda\\envs\\cutsomtf\\lib\\site-packages\\PyQt5\\Qt\\bin\\Qt5Core.dll',
   'BINARY'),
  ('Qt5Gui.dll',
   'c:\\users\\wot-mahek\\.conda\\envs\\cutsomtf\\lib\\site-packages\\PyQt5\\Qt\\bin\\Qt5Gui.dll',
   'BINARY'),
  ('api-ms-win-crt-utility-l1-1-0.dll',
   'c:\\users\\wot-mahek\\.conda\\envs\\cutsomtf\\api-ms-win-crt-utility-l1-1-0.dll',
   'BINARY'),
  ('MSVCP140.dll',
   'C:\\users\\wot-mahek\\.conda\\envs\\cutsomtf\\lib\\site-packages\\PyQt5\\Qt\\bin\\MSVCP140.dll',
   'BINARY'),
  ('VCRUNTIME140_1.dll',
   'C:\\users\\wot-mahek\\.conda\\envs\\cutsomtf\\lib\\site-packages\\PyQt5\\Qt\\bin\\VCRUNTIME140_1.dll',
   'BINARY'),
  ('Qt5Svg.dll',
   'c:\\users\\wot-mahek\\.conda\\envs\\cutsomtf\\lib\\site-packages\\PyQt5\\Qt\\bin\\Qt5Svg.dll',
   'BINARY'),
  ('Qt5Widgets.dll',
   'c:\\users\\wot-mahek\\.conda\\envs\\cutsomtf\\lib\\site-packages\\PyQt5\\Qt\\bin\\Qt5Widgets.dll',
   'BINARY'),
  ('Qt5DBus.dll',
   'c:\\users\\wot-mahek\\.conda\\envs\\cutsomtf\\lib\\site-packages\\PyQt5\\Qt\\bin\\Qt5DBus.dll',
   'BINARY'),
  ('Qt5Network.dll',
   'c:\\users\\wot-mahek\\.conda\\envs\\cutsomtf\\lib\\site-packages\\PyQt5\\Qt\\bin\\Qt5Network.dll',
   'BINARY'),
  ('Qt5WebSockets.dll',
   'c:\\users\\wot-mahek\\.conda\\envs\\cutsomtf\\lib\\site-packages\\PyQt5\\Qt\\bin\\Qt5WebSockets.dll',
   'BINARY'),
  ('Qt5Quick.dll',
   'c:\\users\\wot-mahek\\.conda\\envs\\cutsomtf\\lib\\site-packages\\PyQt5\\Qt\\bin\\Qt5Quick.dll',
   'BINARY'),
  ('mfc140u.dll',
   'c:\\users\\wot-mahek\\.conda\\envs\\cutsomtf\\lib\\site-packages\\Pythonwin\\mfc140u.dll',
   'BINARY'),
  ('python3.dll',
   'c:\\users\\wot-mahek\\.conda\\envs\\cutsomtf\\python3.dll',
   'BINARY'),
  ('tiff.dll',
   'C:\\Users\\WOT-Mahek\\.conda\\envs\\cutsomtf\\Library\\bin\\tiff.dll',
   'BINARY'),
  ('zlib.dll',
   'C:\\Users\\WOT-Mahek\\.conda\\envs\\cutsomtf\\Library\\bin\\zlib.dll',
   'BINARY'),
  ('MSVCP140_1.dll',
   'c:\\users\\wot-mahek\\.conda\\envs\\cutsomtf\\lib\\site-packages\\PyQt5\\Qt\\bin\\MSVCP140_1.dll',
   'BINARY'),
  ('Qt5QmlModels.dll',
   'c:\\users\\wot-mahek\\.conda\\envs\\cutsomtf\\lib\\site-packages\\PyQt5\\Qt\\bin\\Qt5QmlModels.dll',
   'BINARY'),
  ('Qt5Qml.dll',
   'c:\\users\\wot-mahek\\.conda\\envs\\cutsomtf\\lib\\site-packages\\PyQt5\\Qt\\bin\\Qt5Qml.dll',
   'BINARY'),
  ('api-ms-win-crt-multibyte-l1-1-0.dll',
   'c:\\users\\wot-mahek\\.conda\\envs\\cutsomtf\\api-ms-win-crt-multibyte-l1-1-0.dll',
   'BINARY'),
  ('zstd.dll',
   'C:\\Users\\WOT-Mahek\\.conda\\envs\\cutsomtf\\Library\\bin\\zstd.dll',
   'BINARY'),
  ('liblzma.dll',
   'C:\\Users\\WOT-Mahek\\.conda\\envs\\cutsomtf\\Library\\bin\\liblzma.dll',
   'BINARY'),
  ('base_library.zip',
   'D:\\netra-desktopapp\\.pyupdater\\work\\win\\base_library.zip',
   'DATA'),
  ('PyQt5\\Qt\\translations\\qtbase_lv.qm',
   'C:\\users\\wot-mahek\\.conda\\envs\\cutsomtf\\lib\\site-packages\\PyQt5\\Qt\\translations\\qtbase_lv.qm',
   'DATA'),
  ('PyQt5\\Qt\\translations\\qtbase_it.qm',
   'C:\\users\\wot-mahek\\.conda\\envs\\cutsomtf\\lib\\site-packages\\PyQt5\\Qt\\translations\\qtbase_it.qm',
   'DATA'),
  ('PyQt5\\Qt\\translations\\qtbase_uk.qm',
   'C:\\users\\wot-mahek\\.conda\\envs\\cutsomtf\\lib\\site-packages\\PyQt5\\Qt\\translations\\qtbase_uk.qm',
   'DATA'),
  ('PyQt5\\Qt\\translations\\qtbase_pl.qm',
   'C:\\users\\wot-mahek\\.conda\\envs\\cutsomtf\\lib\\site-packages\\PyQt5\\Qt\\translations\\qtbase_pl.qm',
   'DATA'),
  ('PyQt5\\Qt\\translations\\qtbase_ru.qm',
   'C:\\users\\wot-mahek\\.conda\\envs\\cutsomtf\\lib\\site-packages\\PyQt5\\Qt\\translations\\qtbase_ru.qm',
   'DATA'),
  ('PyQt5\\Qt\\translations\\qtbase_zh_TW.qm',
   'C:\\users\\wot-mahek\\.conda\\envs\\cutsomtf\\lib\\site-packages\\PyQt5\\Qt\\translations\\qtbase_zh_TW.qm',
   'DATA'),
  ('PyQt5\\Qt\\translations\\qtbase_tr.qm',
   'C:\\users\\wot-mahek\\.conda\\envs\\cutsomtf\\lib\\site-packages\\PyQt5\\Qt\\translations\\qtbase_tr.qm',
   'DATA'),
  ('PyQt5\\Qt\\translations\\qtbase_da.qm',
   'C:\\users\\wot-mahek\\.conda\\envs\\cutsomtf\\lib\\site-packages\\PyQt5\\Qt\\translations\\qtbase_da.qm',
   'DATA'),
  ('PyQt5\\Qt\\translations\\qtbase_de.qm',
   'C:\\users\\wot-mahek\\.conda\\envs\\cutsomtf\\lib\\site-packages\\PyQt5\\Qt\\translations\\qtbase_de.qm',
   'DATA'),
  ('PyQt5\\Qt\\translations\\qtbase_fr.qm',
   'C:\\users\\wot-mahek\\.conda\\envs\\cutsomtf\\lib\\site-packages\\PyQt5\\Qt\\translations\\qtbase_fr.qm',
   'DATA'),
  ('PyQt5\\Qt\\translations\\qtbase_ko.qm',
   'C:\\users\\wot-mahek\\.conda\\envs\\cutsomtf\\lib\\site-packages\\PyQt5\\Qt\\translations\\qtbase_ko.qm',
   'DATA'),
  ('PyQt5\\Qt\\translations\\qtbase_fi.qm',
   'C:\\users\\wot-mahek\\.conda\\envs\\cutsomtf\\lib\\site-packages\\PyQt5\\Qt\\translations\\qtbase_fi.qm',
   'DATA'),
  ('Include\\pyconfig.h',
   'c:\\users\\wot-mahek\\.conda\\envs\\cutsomtf\\Include\\pyconfig.h',
   'DATA'),
  ('PyQt5\\Qt\\translations\\qtbase_hu.qm',
   'C:\\users\\wot-mahek\\.conda\\envs\\cutsomtf\\lib\\site-packages\\PyQt5\\Qt\\translations\\qtbase_hu.qm',
   'DATA'),
  ('PyQt5\\Qt\\translations\\qtbase_es.qm',
   'C:\\users\\wot-mahek\\.conda\\envs\\cutsomtf\\lib\\site-packages\\PyQt5\\Qt\\translations\\qtbase_es.qm',
   'DATA'),
  ('PyQt5\\Qt\\translations\\qtbase_cs.qm',
   'C:\\users\\wot-mahek\\.conda\\envs\\cutsomtf\\lib\\site-packages\\PyQt5\\Qt\\translations\\qtbase_cs.qm',
   'DATA'),
  ('PyQt5\\Qt\\translations\\qtbase_ca.qm',
   'C:\\users\\wot-mahek\\.conda\\envs\\cutsomtf\\lib\\site-packages\\PyQt5\\Qt\\translations\\qtbase_ca.qm',
   'DATA'),
  ('PyQt5\\Qt\\translations\\qtbase_bg.qm',
   'C:\\users\\wot-mahek\\.conda\\envs\\cutsomtf\\lib\\site-packages\\PyQt5\\Qt\\translations\\qtbase_bg.qm',
   'DATA'),
  ('PyQt5\\Qt\\translations\\qtbase_ja.qm',
   'C:\\users\\wot-mahek\\.conda\\envs\\cutsomtf\\lib\\site-packages\\PyQt5\\Qt\\translations\\qtbase_ja.qm',
   'DATA'),
  ('PyQt5\\Qt\\translations\\qtbase_ar.qm',
   'C:\\users\\wot-mahek\\.conda\\envs\\cutsomtf\\lib\\site-packages\\PyQt5\\Qt\\translations\\qtbase_ar.qm',
   'DATA'),
  ('PyQt5\\Qt\\translations\\qtbase_en.qm',
   'C:\\users\\wot-mahek\\.conda\\envs\\cutsomtf\\lib\\site-packages\\PyQt5\\Qt\\translations\\qtbase_en.qm',
   'DATA'),
  ('PyQt5\\Qt\\translations\\qtbase_he.qm',
   'C:\\users\\wot-mahek\\.conda\\envs\\cutsomtf\\lib\\site-packages\\PyQt5\\Qt\\translations\\qtbase_he.qm',
   'DATA'),
  ('PyQt5\\Qt\\translations\\qtbase_sk.qm',
   'C:\\users\\wot-mahek\\.conda\\envs\\cutsomtf\\lib\\site-packages\\PyQt5\\Qt\\translations\\qtbase_sk.qm',
   'DATA'),
  ('PyQt5\\Qt\\translations\\qtbase_gd.qm',
   'C:\\users\\wot-mahek\\.conda\\envs\\cutsomtf\\lib\\site-packages\\PyQt5\\Qt\\translations\\qtbase_gd.qm',
   'DATA')],)
