([('Main.exe', 'D:\\netra-desktopapp\\build\\Main\\Main.exe', 'EXECUTABLE'),
  ('Main.exe.manifest',
   'D:\\netra-desktopapp\\build\\Main\\Main.exe.manifest',
   'BINARY'),
  ('api-ms-win-crt-stdio-l1-1-0.dll',
   'c:\\users\\wot-mahek\\.conda\\envs\\cutsomtf\\api-ms-win-crt-stdio-l1-1-0.dll',
   'BINARY'),
  ('python36.dll',
   'c:\\users\\wot-mahek\\.conda\\envs\\cutsomtf\\python36.dll',
   'BINARY'),
  ('api-ms-win-crt-locale-l1-1-0.dll',
   'c:\\users\\wot-mahek\\.conda\\envs\\cutsomtf\\api-ms-win-crt-locale-l1-1-0.dll',
   'BINARY'),
  ('api-ms-win-crt-runtime-l1-1-0.dll',
   'c:\\users\\wot-mahek\\.conda\\envs\\cutsomtf\\api-ms-win-crt-runtime-l1-1-0.dll',
   'BINARY'),
  ('VCRUNTIME140.dll',
   'c:\\users\\wot-mahek\\.conda\\envs\\cutsomtf\\VCRUNTIME140.dll',
   'BINARY'),
  ('api-ms-win-crt-math-l1-1-0.dll',
   'c:\\users\\wot-mahek\\.conda\\envs\\cutsomtf\\api-ms-win-crt-math-l1-1-0.dll',
   'BINARY'),
  ('api-ms-win-crt-heap-l1-1-0.dll',
   'c:\\users\\wot-mahek\\.conda\\envs\\cutsomtf\\api-ms-win-crt-heap-l1-1-0.dll',
   'BINARY'),
  ('ucrtbase.dll',
   'c:\\users\\wot-mahek\\.conda\\envs\\cutsomtf\\ucrtbase.dll',
   'BINARY'),
  ('api-ms-win-crt-time-l1-1-0.dll',
   'c:\\users\\wot-mahek\\.conda\\envs\\cutsomtf\\api-ms-win-crt-time-l1-1-0.dll',
   'BINARY'),
  ('api-ms-win-crt-conio-l1-1-0.dll',
   'c:\\users\\wot-mahek\\.conda\\envs\\cutsomtf\\api-ms-win-crt-conio-l1-1-0.dll',
   'BINARY'),
  ('api-ms-win-crt-environment-l1-1-0.dll',
   'c:\\users\\wot-mahek\\.conda\\envs\\cutsomtf\\api-ms-win-crt-environment-l1-1-0.dll',
   'BINARY'),
  ('api-ms-win-crt-filesystem-l1-1-0.dll',
   'c:\\users\\wot-mahek\\.conda\\envs\\cutsomtf\\api-ms-win-crt-filesystem-l1-1-0.dll',
   'BINARY'),
  ('api-ms-win-crt-string-l1-1-0.dll',
   'c:\\users\\wot-mahek\\.conda\\envs\\cutsomtf\\api-ms-win-crt-string-l1-1-0.dll',
   'BINARY'),
  ('api-ms-win-crt-process-l1-1-0.dll',
   'c:\\users\\wot-mahek\\.conda\\envs\\cutsomtf\\api-ms-win-crt-process-l1-1-0.dll',
   'BINARY'),
  ('api-ms-win-crt-convert-l1-1-0.dll',
   'c:\\users\\wot-mahek\\.conda\\envs\\cutsomtf\\api-ms-win-crt-convert-l1-1-0.dll',
   'BINARY'),
  ('api-ms-win-core-datetime-l1-1-0.dll',
   'c:\\users\\wot-mahek\\.conda\\envs\\cutsomtf\\api-ms-win-core-datetime-l1-1-0.dll',
   'BINARY'),
  ('api-ms-win-core-debug-l1-1-0.dll',
   'c:\\users\\wot-mahek\\.conda\\envs\\cutsomtf\\api-ms-win-core-debug-l1-1-0.dll',
   'BINARY'),
  ('api-ms-win-core-namedpipe-l1-1-0.dll',
   'c:\\users\\wot-mahek\\.conda\\envs\\cutsomtf\\api-ms-win-core-namedpipe-l1-1-0.dll',
   'BINARY'),
  ('api-ms-win-core-synch-l1-1-0.dll',
   'c:\\users\\wot-mahek\\.conda\\envs\\cutsomtf\\api-ms-win-core-synch-l1-1-0.dll',
   'BINARY'),
  ('api-ms-win-core-synch-l1-2-0.dll',
   'c:\\users\\wot-mahek\\.conda\\envs\\cutsomtf\\api-ms-win-core-synch-l1-2-0.dll',
   'BINARY'),
  ('api-ms-win-core-file-l1-2-0.dll',
   'c:\\users\\wot-mahek\\.conda\\envs\\cutsomtf\\api-ms-win-core-file-l1-2-0.dll',
   'BINARY'),
  ('api-ms-win-core-file-l2-1-0.dll',
   'c:\\users\\wot-mahek\\.conda\\envs\\cutsomtf\\api-ms-win-core-file-l2-1-0.dll',
   'BINARY'),
  ('api-ms-win-core-interlocked-l1-1-0.dll',
   'c:\\users\\wot-mahek\\.conda\\envs\\cutsomtf\\api-ms-win-core-interlocked-l1-1-0.dll',
   'BINARY'),
  ('api-ms-win-core-handle-l1-1-0.dll',
   'c:\\users\\wot-mahek\\.conda\\envs\\cutsomtf\\api-ms-win-core-handle-l1-1-0.dll',
   'BINARY'),
  ('api-ms-win-core-processthreads-l1-1-1.dll',
   'c:\\users\\wot-mahek\\.conda\\envs\\cutsomtf\\api-ms-win-core-processthreads-l1-1-1.dll',
   'BINARY'),
  ('api-ms-win-core-processenvironment-l1-1-0.dll',
   'c:\\users\\wot-mahek\\.conda\\envs\\cutsomtf\\api-ms-win-core-processenvironment-l1-1-0.dll',
   'BINARY'),
  ('api-ms-win-core-timezone-l1-1-0.dll',
   'c:\\users\\wot-mahek\\.conda\\envs\\cutsomtf\\api-ms-win-core-timezone-l1-1-0.dll',
   'BINARY'),
  ('api-ms-win-core-errorhandling-l1-1-0.dll',
   'c:\\users\\wot-mahek\\.conda\\envs\\cutsomtf\\api-ms-win-core-errorhandling-l1-1-0.dll',
   'BINARY'),
  ('api-ms-win-core-processthreads-l1-1-0.dll',
   'c:\\users\\wot-mahek\\.conda\\envs\\cutsomtf\\api-ms-win-core-processthreads-l1-1-0.dll',
   'BINARY'),
  ('api-ms-win-core-profile-l1-1-0.dll',
   'c:\\users\\wot-mahek\\.conda\\envs\\cutsomtf\\api-ms-win-core-profile-l1-1-0.dll',
   'BINARY'),
  ('api-ms-win-core-console-l1-1-0.dll',
   'c:\\users\\wot-mahek\\.conda\\envs\\cutsomtf\\api-ms-win-core-console-l1-1-0.dll',
   'BINARY'),
  ('api-ms-win-core-heap-l1-1-0.dll',
   'c:\\users\\wot-mahek\\.conda\\envs\\cutsomtf\\api-ms-win-core-heap-l1-1-0.dll',
   'BINARY'),
  ('api-ms-win-core-memory-l1-1-0.dll',
   'c:\\users\\wot-mahek\\.conda\\envs\\cutsomtf\\api-ms-win-core-memory-l1-1-0.dll',
   'BINARY'),
  ('api-ms-win-core-localization-l1-2-0.dll',
   'c:\\users\\wot-mahek\\.conda\\envs\\cutsomtf\\api-ms-win-core-localization-l1-2-0.dll',
   'BINARY'),
  ('api-ms-win-core-string-l1-1-0.dll',
   'c:\\users\\wot-mahek\\.conda\\envs\\cutsomtf\\api-ms-win-core-string-l1-1-0.dll',
   'BINARY'),
  ('api-ms-win-core-file-l1-1-0.dll',
   'c:\\users\\wot-mahek\\.conda\\envs\\cutsomtf\\api-ms-win-core-file-l1-1-0.dll',
   'BINARY'),
  ('api-ms-win-core-libraryloader-l1-1-0.dll',
   'c:\\users\\wot-mahek\\.conda\\envs\\cutsomtf\\api-ms-win-core-libraryloader-l1-1-0.dll',
   'BINARY'),
  ('api-ms-win-core-util-l1-1-0.dll',
   'c:\\users\\wot-mahek\\.conda\\envs\\cutsomtf\\api-ms-win-core-util-l1-1-0.dll',
   'BINARY'),
  ('api-ms-win-core-sysinfo-l1-1-0.dll',
   'c:\\users\\wot-mahek\\.conda\\envs\\cutsomtf\\api-ms-win-core-sysinfo-l1-1-0.dll',
   'BINARY'),
  ('api-ms-win-core-rtlsupport-l1-1-0.dll',
   'c:\\users\\wot-mahek\\.conda\\envs\\cutsomtf\\api-ms-win-core-rtlsupport-l1-1-0.dll',
   'BINARY'),
  ('mkl_scalapack_lp64.dll',
   'c:\\users\\wot-mahek\\.conda\\envs\\cutsomtf\\Library\\bin\\mkl_scalapack_lp64.dll',
   'BINARY'),
  ('mkl_avx.dll',
   'c:\\users\\wot-mahek\\.conda\\envs\\cutsomtf\\Library\\bin\\mkl_avx.dll',
   'BINARY'),
  ('lib_blas_su.A3U3MLJNLZPXLN2HULSVAUE4SILUSO3S.gfortran-win_amd64.dll',
   'c:\\users\\wot-mahek\\.conda\\envs\\cutsomtf\\lib\\site-packages\\scipy\\.libs\\lib_blas_su.A3U3MLJNLZPXLN2HULSVAUE4SILUSO3S.gfortran-win_amd64.dll',
   'BINARY'),
  ('mkl_vml_cmpt.dll',
   'c:\\users\\wot-mahek\\.conda\\envs\\cutsomtf\\Library\\bin\\mkl_vml_cmpt.dll',
   'BINARY'),
  ('PyQt5\\Qt\\plugins\\imageformats\\qtga.dll',
   'C:\\users\\wot-mahek\\.conda\\envs\\cutsomtf\\lib\\site-packages\\PyQt5\\Qt\\plugins\\imageformats\\qtga.dll',
   'BINARY'),
  ('mkl_avx512.dll',
   'c:\\users\\wot-mahek\\.conda\\envs\\cutsomtf\\Library\\bin\\mkl_avx512.dll',
   'BINARY'),
  ('libblkdta00.DM6OZU6JK6GW2OVVTW7IQSMZ7CM436UX.gfortran-win_amd64.dll',
   'c:\\users\\wot-mahek\\.conda\\envs\\cutsomtf\\lib\\site-packages\\scipy\\.libs\\libblkdta00.DM6OZU6JK6GW2OVVTW7IQSMZ7CM436UX.gfortran-win_amd64.dll',
   'BINARY'),
  ('libdgamln.H2VDXKY726EXWGYWTLQFWCUQWEOKCW66.gfortran-win_amd64.dll',
   'c:\\users\\wot-mahek\\.conda\\envs\\cutsomtf\\lib\\site-packages\\scipy\\.libs\\libdgamln.H2VDXKY726EXWGYWTLQFWCUQWEOKCW66.gfortran-win_amd64.dll',
   'BINARY'),
  ('libwrap_dum.YRXNVUDMSZ7QU4JMXEOVLBRJVRHCDMOD.gfortran-win_amd64.dll',
   'c:\\users\\wot-mahek\\.conda\\envs\\cutsomtf\\lib\\site-packages\\scipy\\.libs\\libwrap_dum.YRXNVUDMSZ7QU4JMXEOVLBRJVRHCDMOD.gfortran-win_amd64.dll',
   'BINARY'),
  ('mkl_rt.dll',
   'c:\\users\\wot-mahek\\.conda\\envs\\cutsomtf\\Library\\bin\\mkl_rt.dll',
   'BINARY'),
  ('libdet.3DUM4WTGGUXU7ZG3JXJUWKRAUXB44DQK.gfortran-win_amd64.dll',
   'c:\\users\\wot-mahek\\.conda\\envs\\cutsomtf\\lib\\site-packages\\scipy\\.libs\\libdet.3DUM4WTGGUXU7ZG3JXJUWKRAUXB44DQK.gfortran-win_amd64.dll',
   'BINARY'),
  ('mkl_tbb_thread.dll',
   'c:\\users\\wot-mahek\\.conda\\envs\\cutsomtf\\Library\\bin\\mkl_tbb_thread.dll',
   'BINARY'),
  ('libmvndst.ESZZP47EV6RKCFYTPDCSXD6LWVEBJFUI.gfortran-win_amd64.dll',
   'c:\\users\\wot-mahek\\.conda\\envs\\cutsomtf\\lib\\site-packages\\scipy\\.libs\\libmvndst.ESZZP47EV6RKCFYTPDCSXD6LWVEBJFUI.gfortran-win_amd64.dll',
   'BINARY'),
  ('mkl_def.dll',
   'c:\\users\\wot-mahek\\.conda\\envs\\cutsomtf\\Library\\bin\\mkl_def.dll',
   'BINARY'),
  ('PyQt5\\Qt\\plugins\\imageformats\\qico.dll',
   'C:\\users\\wot-mahek\\.conda\\envs\\cutsomtf\\lib\\site-packages\\PyQt5\\Qt\\plugins\\imageformats\\qico.dll',
   'BINARY'),
  ('libbanded5x.LJ25CFOXGVH6FGR46JMAT7BI46ZEL7MV.gfortran-win_amd64.dll',
   'c:\\users\\wot-mahek\\.conda\\envs\\cutsomtf\\lib\\site-packages\\scipy\\.libs\\libbanded5x.LJ25CFOXGVH6FGR46JMAT7BI46ZEL7MV.gfortran-win_amd64.dll',
   'BINARY'),
  ('libopenblas.PYQHXLVVQ7VESDPUVUADXEVJOBGHJPAY.gfortran-win_amd64.dll',
   'c:\\users\\wot-mahek\\.conda\\envs\\cutsomtf\\lib\\site-packages\\scipy\\.libs\\libopenblas.PYQHXLVVQ7VESDPUVUADXEVJOBGHJPAY.gfortran-win_amd64.dll',
   'BINARY'),
  ('mkl_vml_avx512.dll',
   'c:\\users\\wot-mahek\\.conda\\envs\\cutsomtf\\Library\\bin\\mkl_vml_avx512.dll',
   'BINARY'),
  ('PyQt5\\Qt\\plugins\\imageformats\\qgif.dll',
   'C:\\users\\wot-mahek\\.conda\\envs\\cutsomtf\\lib\\site-packages\\PyQt5\\Qt\\plugins\\imageformats\\qgif.dll',
   'BINARY'),
  ('libdfft_sub.HB6HWU2LTJ5P64D6JB5BTIRBGGFAIHE4.gfortran-win_amd64.dll',
   'c:\\users\\wot-mahek\\.conda\\envs\\cutsomtf\\lib\\site-packages\\scipy\\.libs\\libdfft_sub.HB6HWU2LTJ5P64D6JB5BTIRBGGFAIHE4.gfortran-win_amd64.dll',
   'BINARY'),
  ('mkl_blacs_msmpi_lp64.dll',
   'c:\\users\\wot-mahek\\.conda\\envs\\cutsomtf\\Library\\bin\\mkl_blacs_msmpi_lp64.dll',
   'BINARY'),
  ('PyQt5\\Qt\\plugins\\iconengines\\qsvgicon.dll',
   'C:\\users\\wot-mahek\\.conda\\envs\\cutsomtf\\lib\\site-packages\\PyQt5\\Qt\\plugins\\iconengines\\qsvgicon.dll',
   'BINARY'),
  ('mkl_msg.dll',
   'c:\\users\\wot-mahek\\.conda\\envs\\cutsomtf\\Library\\bin\\mkl_msg.dll',
   'BINARY'),
  ('PyQt5\\Qt\\plugins\\imageformats\\qwebp.dll',
   'C:\\users\\wot-mahek\\.conda\\envs\\cutsomtf\\lib\\site-packages\\PyQt5\\Qt\\plugins\\imageformats\\qwebp.dll',
   'BINARY'),
  ('mkl_vml_def.dll',
   'c:\\users\\wot-mahek\\.conda\\envs\\cutsomtf\\Library\\bin\\mkl_vml_def.dll',
   'BINARY'),
  ('libnnls.IXEEHJUCGHJL42YZEM6UIEMROJWXHMLJ.gfortran-win_amd64.dll',
   'c:\\users\\wot-mahek\\.conda\\envs\\cutsomtf\\lib\\site-packages\\scipy\\.libs\\libnnls.IXEEHJUCGHJL42YZEM6UIEMROJWXHMLJ.gfortran-win_amd64.dll',
   'BINARY'),
  ('PyQt5\\Qt\\plugins\\imageformats\\qjpeg.dll',
   'C:\\users\\wot-mahek\\.conda\\envs\\cutsomtf\\lib\\site-packages\\PyQt5\\Qt\\plugins\\imageformats\\qjpeg.dll',
   'BINARY'),
  ('opengl32sw.dll',
   'C:\\users\\wot-mahek\\.conda\\envs\\cutsomtf\\lib\\site-packages\\PyQt5\\Qt\\bin\\opengl32sw.dll',
   'BINARY'),
  ('mkl_intel_thread.dll',
   'c:\\users\\wot-mahek\\.conda\\envs\\cutsomtf\\Library\\bin\\mkl_intel_thread.dll',
   'BINARY'),
  ('mkl_scalapack_ilp64.dll',
   'c:\\users\\wot-mahek\\.conda\\envs\\cutsomtf\\Library\\bin\\mkl_scalapack_ilp64.dll',
   'BINARY'),
  ('mkl_sequential.dll',
   'c:\\users\\wot-mahek\\.conda\\envs\\cutsomtf\\Library\\bin\\mkl_sequential.dll',
   'BINARY'),
  ('libEGL.dll',
   'C:\\users\\wot-mahek\\.conda\\envs\\cutsomtf\\lib\\site-packages\\PyQt5\\Qt\\bin\\libEGL.dll',
   'BINARY'),
  ('mkl_avx2.dll',
   'c:\\users\\wot-mahek\\.conda\\envs\\cutsomtf\\Library\\bin\\mkl_avx2.dll',
   'BINARY'),
  ('pywintypes36.dll',
   'c:\\users\\wot-mahek\\.conda\\envs\\cutsomtf\\lib\\site-packages\\pywin32_system32\\pywintypes36.dll',
   'BINARY'),
  ('msvcp140.dll',
   'c:\\users\\wot-mahek\\.conda\\envs\\cutsomtf\\lib\\site-packages\\scipy\\.libs\\msvcp140.dll',
   'BINARY'),
  ('PyQt5\\Qt\\plugins\\imageformats\\qsvg.dll',
   'C:\\users\\wot-mahek\\.conda\\envs\\cutsomtf\\lib\\site-packages\\PyQt5\\Qt\\plugins\\imageformats\\qsvg.dll',
   'BINARY'),
  ('libcobyla2.25EVUSEBAW7VKISARB7LO3UGZPN2HXE3.gfortran-win_amd64.dll',
   'c:\\users\\wot-mahek\\.conda\\envs\\cutsomtf\\lib\\site-packages\\scipy\\.libs\\libcobyla2.25EVUSEBAW7VKISARB7LO3UGZPN2HXE3.gfortran-win_amd64.dll',
   'BINARY'),
  ('libansari.R6EA3HQP5KZ6TAXU4Y4ZVTRPT7UVA53Z.gfortran-win_amd64.dll',
   'c:\\users\\wot-mahek\\.conda\\envs\\cutsomtf\\lib\\site-packages\\scipy\\.libs\\libansari.R6EA3HQP5KZ6TAXU4Y4ZVTRPT7UVA53Z.gfortran-win_amd64.dll',
   'BINARY'),
  ('libchkder.G7WSOGIYYQO3UWFVEZ3PPXCXR53ADVPA.gfortran-win_amd64.dll',
   'c:\\users\\wot-mahek\\.conda\\envs\\cutsomtf\\lib\\site-packages\\scipy\\.libs\\libchkder.G7WSOGIYYQO3UWFVEZ3PPXCXR53ADVPA.gfortran-win_amd64.dll',
   'BINARY'),
  ('libdfitpack.7IZFBC3Q4BSML6VEPAU5LY2YM76FDQBW.gfortran-win_amd64.dll',
   'c:\\users\\wot-mahek\\.conda\\envs\\cutsomtf\\lib\\site-packages\\scipy\\.libs\\libdfitpack.7IZFBC3Q4BSML6VEPAU5LY2YM76FDQBW.gfortran-win_amd64.dll',
   'BINARY'),
  ('libd_odr.FR3MMVWLL2YV6H3CHVW3EJKE6O26S777.gfortran-win_amd64.dll',
   'c:\\users\\wot-mahek\\.conda\\envs\\cutsomtf\\lib\\site-packages\\scipy\\.libs\\libd_odr.FR3MMVWLL2YV6H3CHVW3EJKE6O26S777.gfortran-win_amd64.dll',
   'BINARY'),
  ('mkl_blacs_intelmpi_lp64.dll',
   'c:\\users\\wot-mahek\\.conda\\envs\\cutsomtf\\Library\\bin\\mkl_blacs_intelmpi_lp64.dll',
   'BINARY'),
  ('libdcsrch.I2AOPDCXAPDRFNPWY55H5UE7XZSU5CVN.gfortran-win_amd64.dll',
   'c:\\users\\wot-mahek\\.conda\\envs\\cutsomtf\\lib\\site-packages\\scipy\\.libs\\libdcsrch.I2AOPDCXAPDRFNPWY55H5UE7XZSU5CVN.gfortran-win_amd64.dll',
   'BINARY'),
  ('PyQt5\\Qt\\plugins\\imageformats\\qtiff.dll',
   'C:\\users\\wot-mahek\\.conda\\envs\\cutsomtf\\lib\\site-packages\\PyQt5\\Qt\\plugins\\imageformats\\qtiff.dll',
   'BINARY'),
  ('PyQt5\\Qt\\plugins\\platforms\\qoffscreen.dll',
   'C:\\users\\wot-mahek\\.conda\\envs\\cutsomtf\\lib\\site-packages\\PyQt5\\Qt\\plugins\\platforms\\qoffscreen.dll',
   'BINARY'),
  ('PyQt5\\Qt\\plugins\\styles\\qwindowsvistastyle.dll',
   'C:\\users\\wot-mahek\\.conda\\envs\\cutsomtf\\lib\\site-packages\\PyQt5\\Qt\\plugins\\styles\\qwindowsvistastyle.dll',
   'BINARY'),
  ('mkl_mc3.dll',
   'c:\\users\\wot-mahek\\.conda\\envs\\cutsomtf\\Library\\bin\\mkl_mc3.dll',
   'BINARY'),
  ('mkl_vml_avx.dll',
   'c:\\users\\wot-mahek\\.conda\\envs\\cutsomtf\\Library\\bin\\mkl_vml_avx.dll',
   'BINARY'),
  ('lib_arpack-.ZWLQK2J4Q7LTA6NRHLOFYQ7CTZKNNRPK.gfortran-win_amd64.dll',
   'c:\\users\\wot-mahek\\.conda\\envs\\cutsomtf\\lib\\site-packages\\scipy\\.libs\\lib_arpack-.ZWLQK2J4Q7LTA6NRHLOFYQ7CTZKNNRPK.gfortran-win_amd64.dll',
   'BINARY'),
  ('PyQt5\\Qt\\plugins\\platforms\\qwindows.dll',
   'C:\\users\\wot-mahek\\.conda\\envs\\cutsomtf\\lib\\site-packages\\PyQt5\\Qt\\plugins\\platforms\\qwindows.dll',
   'BINARY'),
  ('mkl_vml_mc3.dll',
   'c:\\users\\wot-mahek\\.conda\\envs\\cutsomtf\\Library\\bin\\mkl_vml_mc3.dll',
   'BINARY'),
  ('pythoncom36.dll',
   'c:\\users\\wot-mahek\\.conda\\envs\\cutsomtf\\lib\\site-packages\\pywin32_system32\\pythoncom36.dll',
   'BINARY'),
  ('mkl_mc.dll',
   'c:\\users\\wot-mahek\\.conda\\envs\\cutsomtf\\Library\\bin\\mkl_mc.dll',
   'BINARY'),
  ('libslsqp_op.RGGN6ZOFD2K47X7YRNDYCM7JFP4AGLER.gfortran-win_amd64.dll',
   'c:\\users\\wot-mahek\\.conda\\envs\\cutsomtf\\lib\\site-packages\\scipy\\.libs\\libslsqp_op.RGGN6ZOFD2K47X7YRNDYCM7JFP4AGLER.gfortran-win_amd64.dll',
   'BINARY'),
  ('mkl_blacs_mpich2_ilp64.dll',
   'c:\\users\\wot-mahek\\.conda\\envs\\cutsomtf\\Library\\bin\\mkl_blacs_mpich2_ilp64.dll',
   'BINARY'),
  ('lib_test_fo.JF5HTWMUPBXWGAYEBVEJU3OZAHTSVKCT.gfortran-win_amd64.dll',
   'c:\\users\\wot-mahek\\.conda\\envs\\cutsomtf\\lib\\site-packages\\scipy\\.libs\\lib_test_fo.JF5HTWMUPBXWGAYEBVEJU3OZAHTSVKCT.gfortran-win_amd64.dll',
   'BINARY'),
  ('libbispeu.7AH3PCQ2E2NGLC3AQD7FFAH73KGJTZCJ.gfortran-win_amd64.dll',
   'c:\\users\\wot-mahek\\.conda\\envs\\cutsomtf\\lib\\site-packages\\scipy\\.libs\\libbispeu.7AH3PCQ2E2NGLC3AQD7FFAH73KGJTZCJ.gfortran-win_amd64.dll',
   'BINARY'),
  ('libgetbreak.52XR6FXTDBZJEAXZ7RBM3ZG7BEALZ5AO.gfortran-win_amd64.dll',
   'c:\\users\\wot-mahek\\.conda\\envs\\cutsomtf\\lib\\site-packages\\scipy\\.libs\\libgetbreak.52XR6FXTDBZJEAXZ7RBM3ZG7BEALZ5AO.gfortran-win_amd64.dll',
   'BINARY'),
  ('liblbfgsb.YW64XR7R2AS5O3KQDT3MUZ2FXBQP3DXM.gfortran-win_amd64.dll',
   'c:\\users\\wot-mahek\\.conda\\envs\\cutsomtf\\lib\\site-packages\\scipy\\.libs\\liblbfgsb.YW64XR7R2AS5O3KQDT3MUZ2FXBQP3DXM.gfortran-win_amd64.dll',
   'BINARY'),
  ('PyQt5\\Qt\\plugins\\platformthemes\\qxdgdesktopportal.dll',
   'C:\\users\\wot-mahek\\.conda\\envs\\cutsomtf\\lib\\site-packages\\PyQt5\\Qt\\plugins\\platformthemes\\qxdgdesktopportal.dll',
   'BINARY'),
  ('d3dcompiler_47.dll',
   'C:\\users\\wot-mahek\\.conda\\envs\\cutsomtf\\lib\\site-packages\\PyQt5\\Qt\\bin\\d3dcompiler_47.dll',
   'BINARY'),
  ('libopenblas.WCDJNK7YVMPZQ2ME2ZZHJJRJ3JIKNDB7.gfortran-win_amd64.dll',
   'c:\\users\\wot-mahek\\.conda\\envs\\cutsomtf\\lib\\site-packages\\numpy\\.libs\\libopenblas.WCDJNK7YVMPZQ2ME2ZZHJJRJ3JIKNDB7.gfortran-win_amd64.dll',
   'BINARY'),
  ('PyQt5\\Qt\\plugins\\imageformats\\qwbmp.dll',
   'C:\\users\\wot-mahek\\.conda\\envs\\cutsomtf\\lib\\site-packages\\PyQt5\\Qt\\plugins\\imageformats\\qwbmp.dll',
   'BINARY'),
  ('mkl_pgi_thread.dll',
   'c:\\users\\wot-mahek\\.conda\\envs\\cutsomtf\\Library\\bin\\mkl_pgi_thread.dll',
   'BINARY'),
  ('libdop853.6TJTQZW3I3Q3QIDQHEOBEZKJ3NYRXI4B.gfortran-win_amd64.dll',
   'c:\\users\\wot-mahek\\.conda\\envs\\cutsomtf\\lib\\site-packages\\scipy\\.libs\\libdop853.6TJTQZW3I3Q3QIDQHEOBEZKJ3NYRXI4B.gfortran-win_amd64.dll',
   'BINARY'),
  ('mkl_blacs_msmpi_ilp64.dll',
   'c:\\users\\wot-mahek\\.conda\\envs\\cutsomtf\\Library\\bin\\mkl_blacs_msmpi_ilp64.dll',
   'BINARY'),
  ('mkl_core.dll',
   'c:\\users\\wot-mahek\\.conda\\envs\\cutsomtf\\Library\\bin\\mkl_core.dll',
   'BINARY'),
  ('mkl_vml_mc2.dll',
   'c:\\users\\wot-mahek\\.conda\\envs\\cutsomtf\\Library\\bin\\mkl_vml_mc2.dll',
   'BINARY'),
  ('PyQt5\\Qt\\plugins\\platforms\\qwebgl.dll',
   'C:\\users\\wot-mahek\\.conda\\envs\\cutsomtf\\lib\\site-packages\\PyQt5\\Qt\\plugins\\platforms\\qwebgl.dll',
   'BINARY'),
  ('mkl_blacs_mpich2_lp64.dll',
   'c:\\users\\wot-mahek\\.conda\\envs\\cutsomtf\\Library\\bin\\mkl_blacs_mpich2_lp64.dll',
   'BINARY'),
  ('libvode.77WNQL2EO7262UY6NS4XKZBSXCVMKUJ5.gfortran-win_amd64.dll',
   'c:\\users\\wot-mahek\\.conda\\envs\\cutsomtf\\lib\\site-packages\\scipy\\.libs\\libvode.77WNQL2EO7262UY6NS4XKZBSXCVMKUJ5.gfortran-win_amd64.dll',
   'BINARY'),
  ('mkl_vml_mc.dll',
   'c:\\users\\wot-mahek\\.conda\\envs\\cutsomtf\\Library\\bin\\mkl_vml_mc.dll',
   'BINARY'),
  ('mkl_vml_avx2.dll',
   'c:\\users\\wot-mahek\\.conda\\envs\\cutsomtf\\Library\\bin\\mkl_vml_avx2.dll',
   'BINARY'),
  ('mkl_blacs_ilp64.dll',
   'c:\\users\\wot-mahek\\.conda\\envs\\cutsomtf\\Library\\bin\\mkl_blacs_ilp64.dll',
   'BINARY'),
  ('mkl_blacs_lp64.dll',
   'c:\\users\\wot-mahek\\.conda\\envs\\cutsomtf\\Library\\bin\\mkl_blacs_lp64.dll',
   'BINARY'),
  ('libwrap_dum.INBF4P5HZHWSHKX5FWH4U4H3URQULOGK.gfortran-win_amd64.dll',
   'c:\\users\\wot-mahek\\.conda\\envs\\cutsomtf\\lib\\site-packages\\scipy\\.libs\\libwrap_dum.INBF4P5HZHWSHKX5FWH4U4H3URQULOGK.gfortran-win_amd64.dll',
   'BINARY'),
  ('libspecfun.LQCTHMCYNULEOOGKIO6AGREE6D6V37RU.gfortran-win_amd64.dll',
   'c:\\users\\wot-mahek\\.conda\\envs\\cutsomtf\\lib\\site-packages\\scipy\\.libs\\libspecfun.LQCTHMCYNULEOOGKIO6AGREE6D6V37RU.gfortran-win_amd64.dll',
   'BINARY'),
  ('PyQt5\\Qt\\plugins\\imageformats\\qicns.dll',
   'C:\\users\\wot-mahek\\.conda\\envs\\cutsomtf\\lib\\site-packages\\PyQt5\\Qt\\plugins\\imageformats\\qicns.dll',
   'BINARY'),
  ('mkl_cdft_core.dll',
   'c:\\users\\wot-mahek\\.conda\\envs\\cutsomtf\\Library\\bin\\mkl_cdft_core.dll',
   'BINARY'),
  ('libGLESv2.dll',
   'C:\\users\\wot-mahek\\.conda\\envs\\cutsomtf\\lib\\site-packages\\PyQt5\\Qt\\bin\\libGLESv2.dll',
   'BINARY'),
  ('libdqag.ASUMN6BY75Q4T7EHKHRAAMUB7NJQZ6AF.gfortran-win_amd64.dll',
   'c:\\users\\wot-mahek\\.conda\\envs\\cutsomtf\\lib\\site-packages\\scipy\\.libs\\libdqag.ASUMN6BY75Q4T7EHKHRAAMUB7NJQZ6AF.gfortran-win_amd64.dll',
   'BINARY'),
  ('PyQt5\\Qt\\plugins\\platforms\\qminimal.dll',
   'C:\\users\\wot-mahek\\.conda\\envs\\cutsomtf\\lib\\site-packages\\PyQt5\\Qt\\plugins\\platforms\\qminimal.dll',
   'BINARY'),
  ('mkl_blacs_intelmpi_ilp64.dll',
   'c:\\users\\wot-mahek\\.conda\\envs\\cutsomtf\\Library\\bin\\mkl_blacs_intelmpi_ilp64.dll',
   'BINARY'),
  ('_lzma',
   'c:\\users\\wot-mahek\\.conda\\envs\\cutsomtf\\DLLs\\_lzma.pyd',
   'EXTENSION'),
  ('_bz2',
   'c:\\users\\wot-mahek\\.conda\\envs\\cutsomtf\\DLLs\\_bz2.pyd',
   'EXTENSION'),
  ('_hashlib',
   'c:\\users\\wot-mahek\\.conda\\envs\\cutsomtf\\DLLs\\_hashlib.pyd',
   'EXTENSION'),
  ('_win32sysloader',
   'c:\\users\\wot-mahek\\.conda\\envs\\cutsomtf\\lib\\site-packages\\win32\\_win32sysloader.pyd',
   'EXTENSION'),
  ('win32wnet',
   'c:\\users\\wot-mahek\\.conda\\envs\\cutsomtf\\lib\\site-packages\\win32\\win32wnet.pyd',
   'EXTENSION'),
  ('_ctypes',
   'c:\\users\\wot-mahek\\.conda\\envs\\cutsomtf\\DLLs\\_ctypes.pyd',
   'EXTENSION'),
  ('select',
   'c:\\users\\wot-mahek\\.conda\\envs\\cutsomtf\\DLLs\\select.pyd',
   'EXTENSION'),
  ('_socket',
   'c:\\users\\wot-mahek\\.conda\\envs\\cutsomtf\\DLLs\\_socket.pyd',
   'EXTENSION'),
  ('_ssl',
   'c:\\users\\wot-mahek\\.conda\\envs\\cutsomtf\\DLLs\\_ssl.pyd',
   'EXTENSION'),
  ('unicodedata',
   'c:\\users\\wot-mahek\\.conda\\envs\\cutsomtf\\DLLs\\unicodedata.pyd',
   'EXTENSION'),
  ('win32api',
   'c:\\users\\wot-mahek\\.conda\\envs\\cutsomtf\\lib\\site-packages\\win32\\win32api.pyd',
   'EXTENSION'),
  ('win32com.shell.shell',
   'c:\\users\\wot-mahek\\.conda\\envs\\cutsomtf\\lib\\site-packages\\win32comext\\shell\\shell.pyd',
   'EXTENSION'),
  ('win32trace',
   'c:\\users\\wot-mahek\\.conda\\envs\\cutsomtf\\lib\\site-packages\\win32\\win32trace.pyd',
   'EXTENSION'),
  ('win32ui',
   'c:\\users\\wot-mahek\\.conda\\envs\\cutsomtf\\lib\\site-packages\\Pythonwin\\win32ui.pyd',
   'EXTENSION'),
  ('pyexpat',
   'c:\\users\\wot-mahek\\.conda\\envs\\cutsomtf\\DLLs\\pyexpat.pyd',
   'EXTENSION'),
  ('_multiprocessing',
   'c:\\users\\wot-mahek\\.conda\\envs\\cutsomtf\\DLLs\\_multiprocessing.pyd',
   'EXTENSION'),
  ('_decimal',
   'c:\\users\\wot-mahek\\.conda\\envs\\cutsomtf\\DLLs\\_decimal.pyd',
   'EXTENSION'),
  ('win32file',
   'c:\\users\\wot-mahek\\.conda\\envs\\cutsomtf\\lib\\site-packages\\win32\\win32file.pyd',
   'EXTENSION'),
  ('win32event',
   'c:\\users\\wot-mahek\\.conda\\envs\\cutsomtf\\lib\\site-packages\\win32\\win32event.pyd',
   'EXTENSION'),
  ('win32gui',
   'c:\\users\\wot-mahek\\.conda\\envs\\cutsomtf\\lib\\site-packages\\win32\\win32gui.pyd',
   'EXTENSION'),
  ('win32process',
   'c:\\users\\wot-mahek\\.conda\\envs\\cutsomtf\\lib\\site-packages\\win32\\win32process.pyd',
   'EXTENSION'),
  ('PIL._imagingtk',
   'c:\\users\\wot-mahek\\.conda\\envs\\cutsomtf\\lib\\site-packages\\PIL\\_imagingtk.cp36-win_amd64.pyd',
   'EXTENSION'),
  ('_distutils_findvs',
   'c:\\users\\wot-mahek\\.conda\\envs\\cutsomtf\\DLLs\\_distutils_findvs.pyd',
   'EXTENSION'),
  ('_cffi_backend',
   'c:\\users\\wot-mahek\\.conda\\envs\\cutsomtf\\lib\\site-packages\\_cffi_backend.cp36-win_amd64.pyd',
   'EXTENSION'),
  ('PIL._imaging',
   'c:\\users\\wot-mahek\\.conda\\envs\\cutsomtf\\lib\\site-packages\\PIL\\_imaging.cp36-win_amd64.pyd',
   'EXTENSION'),
  ('_elementtree',
   'c:\\users\\wot-mahek\\.conda\\envs\\cutsomtf\\DLLs\\_elementtree.pyd',
   'EXTENSION'),
  ('mkl._py_mkl_service',
   'c:\\users\\wot-mahek\\.conda\\envs\\cutsomtf\\lib\\site-packages\\mkl\\_py_mkl_service.cp36-win_amd64.pyd',
   'EXTENSION'),
  ('mkl._mklinit',
   'c:\\users\\wot-mahek\\.conda\\envs\\cutsomtf\\lib\\site-packages\\mkl\\_mklinit.cp36-win_amd64.pyd',
   'EXTENSION'),
  ('scipy._lib._fpumode',
   'c:\\users\\wot-mahek\\.conda\\envs\\cutsomtf\\lib\\site-packages\\scipy\\_lib\\_fpumode.cp36-win_amd64.pyd',
   'EXTENSION'),
  ('scipy._lib._ccallback_c',
   'c:\\users\\wot-mahek\\.conda\\envs\\cutsomtf\\lib\\site-packages\\scipy\\_lib\\_ccallback_c.cp36-win_amd64.pyd',
   'EXTENSION'),
  ('scipy._lib.messagestream',
   'c:\\users\\wot-mahek\\.conda\\envs\\cutsomtf\\lib\\site-packages\\scipy\\_lib\\messagestream.cp36-win_amd64.pyd',
   'EXTENSION'),
  ('scipy.fft._pocketfft.pypocketfft',
   'c:\\users\\wot-mahek\\.conda\\envs\\cutsomtf\\lib\\site-packages\\scipy\\fft\\_pocketfft\\pypocketfft.cp36-win_amd64.pyd',
   'EXTENSION'),
  ('scipy._lib._uarray._uarray',
   'c:\\users\\wot-mahek\\.conda\\envs\\cutsomtf\\lib\\site-packages\\scipy\\_lib\\_uarray\\_uarray.cp36-win_amd64.pyd',
   'EXTENSION'),
  ('psutil._psutil_windows',
   'c:\\users\\wot-mahek\\.conda\\envs\\cutsomtf\\lib\\site-packages\\psutil\\_psutil_windows.cp36-win_amd64.pyd',
   'EXTENSION'),
  ('numpy.core._multiarray_umath',
   'c:\\users\\wot-mahek\\.conda\\envs\\cutsomtf\\lib\\site-packages\\numpy\\core\\_multiarray_umath.cp36-win_amd64.pyd',
   'EXTENSION'),
  ('numpy.core._multiarray_tests',
   'c:\\users\\wot-mahek\\.conda\\envs\\cutsomtf\\lib\\site-packages\\numpy\\core\\_multiarray_tests.cp36-win_amd64.pyd',
   'EXTENSION'),
  ('win32pdh',
   'c:\\users\\wot-mahek\\.conda\\envs\\cutsomtf\\lib\\site-packages\\win32\\win32pdh.pyd',
   'EXTENSION'),
  ('numpy.linalg.lapack_lite',
   'c:\\users\\wot-mahek\\.conda\\envs\\cutsomtf\\lib\\site-packages\\numpy\\linalg\\lapack_lite.cp36-win_amd64.pyd',
   'EXTENSION'),
  ('numpy.random.mtrand',
   'c:\\users\\wot-mahek\\.conda\\envs\\cutsomtf\\lib\\site-packages\\numpy\\random\\mtrand.cp36-win_amd64.pyd',
   'EXTENSION'),
  ('numpy.random._sfc64',
   'c:\\users\\wot-mahek\\.conda\\envs\\cutsomtf\\lib\\site-packages\\numpy\\random\\_sfc64.cp36-win_amd64.pyd',
   'EXTENSION'),
  ('numpy.random._philox',
   'c:\\users\\wot-mahek\\.conda\\envs\\cutsomtf\\lib\\site-packages\\numpy\\random\\_philox.cp36-win_amd64.pyd',
   'EXTENSION'),
  ('numpy.random._pcg64',
   'c:\\users\\wot-mahek\\.conda\\envs\\cutsomtf\\lib\\site-packages\\numpy\\random\\_pcg64.cp36-win_amd64.pyd',
   'EXTENSION'),
  ('numpy.random._mt19937',
   'c:\\users\\wot-mahek\\.conda\\envs\\cutsomtf\\lib\\site-packages\\numpy\\random\\_mt19937.cp36-win_amd64.pyd',
   'EXTENSION'),
  ('numpy.random.bit_generator',
   'c:\\users\\wot-mahek\\.conda\\envs\\cutsomtf\\lib\\site-packages\\numpy\\random\\bit_generator.cp36-win_amd64.pyd',
   'EXTENSION'),
  ('numpy.random._generator',
   'c:\\users\\wot-mahek\\.conda\\envs\\cutsomtf\\lib\\site-packages\\numpy\\random\\_generator.cp36-win_amd64.pyd',
   'EXTENSION'),
  ('numpy.random._bounded_integers',
   'c:\\users\\wot-mahek\\.conda\\envs\\cutsomtf\\lib\\site-packages\\numpy\\random\\_bounded_integers.cp36-win_amd64.pyd',
   'EXTENSION'),
  ('numpy.random._common',
   'c:\\users\\wot-mahek\\.conda\\envs\\cutsomtf\\lib\\site-packages\\numpy\\random\\_common.cp36-win_amd64.pyd',
   'EXTENSION'),
  ('numpy.fft._pocketfft_internal',
   'c:\\users\\wot-mahek\\.conda\\envs\\cutsomtf\\lib\\site-packages\\numpy\\fft\\_pocketfft_internal.cp36-win_amd64.pyd',
   'EXTENSION'),
  ('numpy.linalg._umath_linalg',
   'c:\\users\\wot-mahek\\.conda\\envs\\cutsomtf\\lib\\site-packages\\numpy\\linalg\\_umath_linalg.cp36-win_amd64.pyd',
   'EXTENSION'),
  ('PyQt5.QtGui',
   'c:\\users\\wot-mahek\\.conda\\envs\\cutsomtf\\lib\\site-packages\\PyQt5\\QtGui.pyd',
   'EXTENSION'),
  ('PyQt5.QtCore',
   'c:\\users\\wot-mahek\\.conda\\envs\\cutsomtf\\lib\\site-packages\\PyQt5\\QtCore.pyd',
   'EXTENSION'),
  ('PyQt5.sip',
   'c:\\users\\wot-mahek\\.conda\\envs\\cutsomtf\\lib\\site-packages\\PyQt5\\sip.cp36-win_amd64.pyd',
   'EXTENSION'),
  ('sip',
   'c:\\users\\wot-mahek\\.conda\\envs\\cutsomtf\\lib\\site-packages\\sip.pyd',
   'EXTENSION'),
  ('PyQt5.QtWidgets',
   'c:\\users\\wot-mahek\\.conda\\envs\\cutsomtf\\lib\\site-packages\\PyQt5\\QtWidgets.pyd',
   'EXTENSION'),
  ('Qt5Core.dll',
   'c:\\users\\wot-mahek\\.conda\\envs\\cutsomtf\\lib\\site-packages\\PyQt5\\Qt\\bin\\Qt5Core.dll',
   'BINARY'),
  ('Qt5Gui.dll',
   'c:\\users\\wot-mahek\\.conda\\envs\\cutsomtf\\lib\\site-packages\\PyQt5\\Qt\\bin\\Qt5Gui.dll',
   'BINARY'),
  ('Qt5Svg.dll',
   'c:\\users\\wot-mahek\\.conda\\envs\\cutsomtf\\lib\\site-packages\\PyQt5\\Qt\\bin\\Qt5Svg.dll',
   'BINARY'),
  ('api-ms-win-crt-utility-l1-1-0.dll',
   'c:\\users\\wot-mahek\\.conda\\envs\\cutsomtf\\api-ms-win-crt-utility-l1-1-0.dll',
   'BINARY'),
  ('api-ms-win-crt-multibyte-l1-1-0.dll',
   'c:\\users\\wot-mahek\\.conda\\envs\\cutsomtf\\api-ms-win-crt-multibyte-l1-1-0.dll',
   'BINARY'),
  ('Qt5Widgets.dll',
   'c:\\users\\wot-mahek\\.conda\\envs\\cutsomtf\\lib\\site-packages\\PyQt5\\Qt\\bin\\Qt5Widgets.dll',
   'BINARY'),
  ('VCRUNTIME140_1.dll',
   'c:\\users\\wot-mahek\\.conda\\envs\\cutsomtf\\VCRUNTIME140_1.dll',
   'BINARY'),
  ('Qt5DBus.dll',
   'c:\\users\\wot-mahek\\.conda\\envs\\cutsomtf\\lib\\site-packages\\PyQt5\\Qt\\bin\\Qt5DBus.dll',
   'BINARY'),
  ('Qt5Network.dll',
   'c:\\users\\wot-mahek\\.conda\\envs\\cutsomtf\\lib\\site-packages\\PyQt5\\Qt\\bin\\Qt5Network.dll',
   'BINARY'),
  ('Qt5Quick.dll',
   'c:\\users\\wot-mahek\\.conda\\envs\\cutsomtf\\lib\\site-packages\\PyQt5\\Qt\\bin\\Qt5Quick.dll',
   'BINARY'),
  ('Qt5WebSockets.dll',
   'c:\\users\\wot-mahek\\.conda\\envs\\cutsomtf\\lib\\site-packages\\PyQt5\\Qt\\bin\\Qt5WebSockets.dll',
   'BINARY'),
  ('mfc140u.dll',
   'c:\\users\\wot-mahek\\.conda\\envs\\cutsomtf\\lib\\site-packages\\Pythonwin\\mfc140u.dll',
   'BINARY'),
  ('zlib.dll',
   'C:\\Users\\WOT-Mahek\\.conda\\envs\\cutsomtf\\Library\\bin\\zlib.dll',
   'BINARY'),
  ('tiff.dll',
   'C:\\Users\\WOT-Mahek\\.conda\\envs\\cutsomtf\\Library\\bin\\tiff.dll',
   'BINARY'),
  ('python3.dll',
   'c:\\users\\wot-mahek\\.conda\\envs\\cutsomtf\\python3.dll',
   'BINARY'),
  ('MSVCP140_1.dll',
   'c:\\users\\wot-mahek\\.conda\\envs\\cutsomtf\\lib\\site-packages\\PyQt5\\Qt\\bin\\MSVCP140_1.dll',
   'BINARY'),
  ('Qt5QmlModels.dll',
   'c:\\users\\wot-mahek\\.conda\\envs\\cutsomtf\\lib\\site-packages\\PyQt5\\Qt\\bin\\Qt5QmlModels.dll',
   'BINARY'),
  ('Qt5Qml.dll',
   'c:\\users\\wot-mahek\\.conda\\envs\\cutsomtf\\lib\\site-packages\\PyQt5\\Qt\\bin\\Qt5Qml.dll',
   'BINARY'),
  ('liblzma.dll',
   'C:\\Users\\WOT-Mahek\\.conda\\envs\\cutsomtf\\Library\\bin\\liblzma.dll',
   'BINARY'),
  ('zstd.dll',
   'C:\\Users\\WOT-Mahek\\.conda\\envs\\cutsomtf\\Library\\bin\\zstd.dll',
   'BINARY'),
  ('base_library.zip',
   'D:\\netra-desktopapp\\build\\Main\\base_library.zip',
   'DATA'),
  ('PyQt5\\Qt\\translations\\qtbase_ja.qm',
   'C:\\users\\wot-mahek\\.conda\\envs\\cutsomtf\\lib\\site-packages\\PyQt5\\Qt\\translations\\qtbase_ja.qm',
   'DATA'),
  ('PyQt5\\Qt\\translations\\qtbase_bg.qm',
   'C:\\users\\wot-mahek\\.conda\\envs\\cutsomtf\\lib\\site-packages\\PyQt5\\Qt\\translations\\qtbase_bg.qm',
   'DATA'),
  ('PyQt5\\Qt\\translations\\qtbase_ru.qm',
   'C:\\users\\wot-mahek\\.conda\\envs\\cutsomtf\\lib\\site-packages\\PyQt5\\Qt\\translations\\qtbase_ru.qm',
   'DATA'),
  ('PyQt5\\Qt\\translations\\qtbase_tr.qm',
   'C:\\users\\wot-mahek\\.conda\\envs\\cutsomtf\\lib\\site-packages\\PyQt5\\Qt\\translations\\qtbase_tr.qm',
   'DATA'),
  ('PyQt5\\Qt\\translations\\qtbase_gd.qm',
   'C:\\users\\wot-mahek\\.conda\\envs\\cutsomtf\\lib\\site-packages\\PyQt5\\Qt\\translations\\qtbase_gd.qm',
   'DATA'),
  ('PyQt5\\Qt\\translations\\qtbase_zh_TW.qm',
   'C:\\users\\wot-mahek\\.conda\\envs\\cutsomtf\\lib\\site-packages\\PyQt5\\Qt\\translations\\qtbase_zh_TW.qm',
   'DATA'),
  ('PyQt5\\Qt\\translations\\qtbase_en.qm',
   'C:\\users\\wot-mahek\\.conda\\envs\\cutsomtf\\lib\\site-packages\\PyQt5\\Qt\\translations\\qtbase_en.qm',
   'DATA'),
  ('PyQt5\\Qt\\translations\\qtbase_lv.qm',
   'C:\\users\\wot-mahek\\.conda\\envs\\cutsomtf\\lib\\site-packages\\PyQt5\\Qt\\translations\\qtbase_lv.qm',
   'DATA'),
  ('PyQt5\\Qt\\translations\\qtbase_de.qm',
   'C:\\users\\wot-mahek\\.conda\\envs\\cutsomtf\\lib\\site-packages\\PyQt5\\Qt\\translations\\qtbase_de.qm',
   'DATA'),
  ('PyQt5\\Qt\\translations\\qtbase_uk.qm',
   'C:\\users\\wot-mahek\\.conda\\envs\\cutsomtf\\lib\\site-packages\\PyQt5\\Qt\\translations\\qtbase_uk.qm',
   'DATA'),
  ('Include\\pyconfig.h',
   'c:\\users\\wot-mahek\\.conda\\envs\\cutsomtf\\Include\\pyconfig.h',
   'DATA'),
  ('PyQt5\\Qt\\translations\\qtbase_pl.qm',
   'C:\\users\\wot-mahek\\.conda\\envs\\cutsomtf\\lib\\site-packages\\PyQt5\\Qt\\translations\\qtbase_pl.qm',
   'DATA'),
  ('PyQt5\\Qt\\translations\\qtbase_da.qm',
   'C:\\users\\wot-mahek\\.conda\\envs\\cutsomtf\\lib\\site-packages\\PyQt5\\Qt\\translations\\qtbase_da.qm',
   'DATA'),
  ('PyQt5\\Qt\\translations\\qtbase_fr.qm',
   'C:\\users\\wot-mahek\\.conda\\envs\\cutsomtf\\lib\\site-packages\\PyQt5\\Qt\\translations\\qtbase_fr.qm',
   'DATA'),
  ('PyQt5\\Qt\\translations\\qtbase_es.qm',
   'C:\\users\\wot-mahek\\.conda\\envs\\cutsomtf\\lib\\site-packages\\PyQt5\\Qt\\translations\\qtbase_es.qm',
   'DATA'),
  ('PyQt5\\Qt\\translations\\qtbase_it.qm',
   'C:\\users\\wot-mahek\\.conda\\envs\\cutsomtf\\lib\\site-packages\\PyQt5\\Qt\\translations\\qtbase_it.qm',
   'DATA'),
  ('PyQt5\\Qt\\translations\\qtbase_ko.qm',
   'C:\\users\\wot-mahek\\.conda\\envs\\cutsomtf\\lib\\site-packages\\PyQt5\\Qt\\translations\\qtbase_ko.qm',
   'DATA'),
  ('PyQt5\\Qt\\translations\\qtbase_fi.qm',
   'C:\\users\\wot-mahek\\.conda\\envs\\cutsomtf\\lib\\site-packages\\PyQt5\\Qt\\translations\\qtbase_fi.qm',
   'DATA'),
  ('PyQt5\\Qt\\translations\\qtbase_sk.qm',
   'C:\\users\\wot-mahek\\.conda\\envs\\cutsomtf\\lib\\site-packages\\PyQt5\\Qt\\translations\\qtbase_sk.qm',
   'DATA'),
  ('PyQt5\\Qt\\translations\\qtbase_ar.qm',
   'C:\\users\\wot-mahek\\.conda\\envs\\cutsomtf\\lib\\site-packages\\PyQt5\\Qt\\translations\\qtbase_ar.qm',
   'DATA'),
  ('PyQt5\\Qt\\translations\\qtbase_ca.qm',
   'C:\\users\\wot-mahek\\.conda\\envs\\cutsomtf\\lib\\site-packages\\PyQt5\\Qt\\translations\\qtbase_ca.qm',
   'DATA'),
  ('PyQt5\\Qt\\translations\\qtbase_he.qm',
   'C:\\users\\wot-mahek\\.conda\\envs\\cutsomtf\\lib\\site-packages\\PyQt5\\Qt\\translations\\qtbase_he.qm',
   'DATA'),
  ('PyQt5\\Qt\\translations\\qtbase_cs.qm',
   'C:\\users\\wot-mahek\\.conda\\envs\\cutsomtf\\lib\\site-packages\\PyQt5\\Qt\\translations\\qtbase_cs.qm',
   'DATA'),
  ('PyQt5\\Qt\\translations\\qtbase_hu.qm',
   'C:\\users\\wot-mahek\\.conda\\envs\\cutsomtf\\lib\\site-packages\\PyQt5\\Qt\\translations\\qtbase_hu.qm',
   'DATA'),
  ('comtypes\\test\\mylib.idl',
   'c:\\users\\wot-mahek\\.conda\\envs\\cutsomtf\\lib\\site-packages\\comtypes-1.1.9-py3.6.egg\\comtypes\\test\\mylib.idl',
   'DATA'),
  ('comtypes\\test\\mytypelib.idl',
   'c:\\users\\wot-mahek\\.conda\\envs\\cutsomtf\\lib\\site-packages\\comtypes-1.1.9-py3.6.egg\\comtypes\\test\\mytypelib.idl',
   'DATA'),
  ('comtypes\\test\\TestComServer.idl',
   'c:\\users\\wot-mahek\\.conda\\envs\\cutsomtf\\lib\\site-packages\\comtypes-1.1.9-py3.6.egg\\comtypes\\test\\TestComServer.idl',
   'DATA'),
  ('comtypes\\test\\TestComServer.tlb',
   'c:\\users\\wot-mahek\\.conda\\envs\\cutsomtf\\lib\\site-packages\\comtypes-1.1.9-py3.6.egg\\comtypes\\test\\TestComServer.tlb',
   'DATA'),
  ('comtypes\\test\\TestDispServer.idl',
   'c:\\users\\wot-mahek\\.conda\\envs\\cutsomtf\\lib\\site-packages\\comtypes-1.1.9-py3.6.egg\\comtypes\\test\\TestDispServer.idl',
   'DATA'),
  ('comtypes\\test\\TestDispServer.tlb',
   'c:\\users\\wot-mahek\\.conda\\envs\\cutsomtf\\lib\\site-packages\\comtypes-1.1.9-py3.6.egg\\comtypes\\test\\TestDispServer.tlb',
   'DATA'),
  ('comtypes\\test\\test_jscript.js',
   'c:\\users\\wot-mahek\\.conda\\envs\\cutsomtf\\lib\\site-packages\\comtypes-1.1.9-py3.6.egg\\comtypes\\test\\test_jscript.js',
   'DATA')],)
