('D:\\netra-desktopapp\\build\\netra\\PKG-00.pkg',
 {'BINARY': 1,
  'DATA': 1,
  'EXECUTABLE': 1,
  'EXTENSION': 1,
  'PYMODULE': 1,
  'PYSOURCE': 1,
  'PYZ': 0},
 [('PYZ-00.pyz', 'D:\\netra-desktopapp\\build\\netra\\PYZ-00.pyz', 'PYZ'),
  ('struct',
   'c:\\users\\wot-mahek\\.conda\\envs\\cutsomtf\\lib\\struct.pyo',
   'PYMODULE'),
  ('pyimod01_os_path',
   'c:\\users\\wot-mahek\\.conda\\envs\\cutsomtf\\lib\\site-packages\\PyInstaller\\loader\\pyimod01_os_path.pyc',
   'PYMODULE'),
  ('pyimod02_archive',
   'c:\\users\\wot-mahek\\.conda\\envs\\cutsomtf\\lib\\site-packages\\PyInstaller\\loader\\pyimod02_archive.pyc',
   'PYMODULE'),
  ('pyimod03_importers',
   'c:\\users\\wot-mahek\\.conda\\envs\\cutsomtf\\lib\\site-packages\\PyInstaller\\loader\\pyimod03_importers.pyc',
   'PYMODULE'),
  ('pyiboot01_bootstrap',
   'c:\\users\\wot-mahek\\.conda\\envs\\cutsomtf\\lib\\site-packages\\PyInstaller\\loader\\pyiboot01_bootstrap.py',
   'PYSOURCE'),
  ('pyi_rth_pyqt5',
   'c:\\users\\wot-mahek\\.conda\\envs\\cutsomtf\\lib\\site-packages\\PyInstaller\\hooks\\rthooks\\pyi_rth_pyqt5.py',
   'PYSOURCE'),
  ('pyi_rth_multiprocessing',
   'c:\\users\\wot-mahek\\.conda\\envs\\cutsomtf\\lib\\site-packages\\PyInstaller\\hooks\\rthooks\\pyi_rth_multiprocessing.py',
   'PYSOURCE'),
  ('pyi_rth_pkgres',
   'c:\\users\\wot-mahek\\.conda\\envs\\cutsomtf\\lib\\site-packages\\PyInstaller\\hooks\\rthooks\\pyi_rth_pkgres.py',
   'PYSOURCE'),
  ('pyi_rth_win32api',
   'c:\\users\\wot-mahek\\.conda\\envs\\cutsomtf\\lib\\site-packages\\PyInstaller\\hooks\\rthooks\\pyi_rth_win32api.py',
   'PYSOURCE'),
  ('pyi_rth_win32comgenpy',
   'c:\\users\\wot-mahek\\.conda\\envs\\cutsomtf\\lib\\site-packages\\PyInstaller\\hooks\\rthooks\\pyi_rth_win32comgenpy.py',
   'PYSOURCE'),
  ('netra', 'D:\\netra-desktopapp\\netra.py', 'PYSOURCE'),
  ('netra.exe.manifest',
   'D:\\netra-desktopapp\\build\\netra\\netra.exe.manifest',
   'BINARY')],
 True,
 False,
 False,
 [])
