([('get_window_name.exe',
   'D:\\netra-desktopapp\\build\\get_window_name\\get_window_name.exe',
   'EXECUTABLE'),
  ('get_window_name.exe.manifest',
   'D:\\netra-desktopapp\\build\\get_window_name\\get_window_name.exe.manifest',
   'BINARY'),
  ('api-ms-win-crt-runtime-l1-1-0.dll',
   'c:\\users\\wot-mahek\\.conda\\envs\\cutsomtf\\api-ms-win-crt-runtime-l1-1-0.dll',
   'BINARY'),
  ('api-ms-win-crt-math-l1-1-0.dll',
   'c:\\users\\wot-mahek\\.conda\\envs\\cutsomtf\\api-ms-win-crt-math-l1-1-0.dll',
   'BINARY'),
  ('api-ms-win-crt-locale-l1-1-0.dll',
   'c:\\users\\wot-mahek\\.conda\\envs\\cutsomtf\\api-ms-win-crt-locale-l1-1-0.dll',
   'BINARY'),
  ('VCRUNTIME140.dll',
   'c:\\users\\wot-mahek\\.conda\\envs\\cutsomtf\\VCRUNTIME140.dll',
   'BINARY'),
  ('api-ms-win-crt-stdio-l1-1-0.dll',
   'c:\\users\\wot-mahek\\.conda\\envs\\cutsomtf\\api-ms-win-crt-stdio-l1-1-0.dll',
   'BINARY'),
  ('python36.dll',
   'c:\\users\\wot-mahek\\.conda\\envs\\cutsomtf\\python36.dll',
   'BINARY'),
  ('api-ms-win-crt-heap-l1-1-0.dll',
   'c:\\users\\wot-mahek\\.conda\\envs\\cutsomtf\\api-ms-win-crt-heap-l1-1-0.dll',
   'BINARY'),
  ('ucrtbase.dll',
   'c:\\users\\wot-mahek\\.conda\\envs\\cutsomtf\\ucrtbase.dll',
   'BINARY'),
  ('api-ms-win-crt-string-l1-1-0.dll',
   'c:\\users\\wot-mahek\\.conda\\envs\\cutsomtf\\api-ms-win-crt-string-l1-1-0.dll',
   'BINARY'),
  ('api-ms-win-crt-convert-l1-1-0.dll',
   'c:\\users\\wot-mahek\\.conda\\envs\\cutsomtf\\api-ms-win-crt-convert-l1-1-0.dll',
   'BINARY'),
  ('api-ms-win-crt-process-l1-1-0.dll',
   'c:\\users\\wot-mahek\\.conda\\envs\\cutsomtf\\api-ms-win-crt-process-l1-1-0.dll',
   'BINARY'),
  ('api-ms-win-crt-time-l1-1-0.dll',
   'c:\\users\\wot-mahek\\.conda\\envs\\cutsomtf\\api-ms-win-crt-time-l1-1-0.dll',
   'BINARY'),
  ('api-ms-win-crt-filesystem-l1-1-0.dll',
   'c:\\users\\wot-mahek\\.conda\\envs\\cutsomtf\\api-ms-win-crt-filesystem-l1-1-0.dll',
   'BINARY'),
  ('api-ms-win-crt-conio-l1-1-0.dll',
   'c:\\users\\wot-mahek\\.conda\\envs\\cutsomtf\\api-ms-win-crt-conio-l1-1-0.dll',
   'BINARY'),
  ('api-ms-win-crt-environment-l1-1-0.dll',
   'c:\\users\\wot-mahek\\.conda\\envs\\cutsomtf\\api-ms-win-crt-environment-l1-1-0.dll',
   'BINARY'),
  ('api-ms-win-core-string-l1-1-0.dll',
   'c:\\users\\wot-mahek\\.conda\\envs\\cutsomtf\\api-ms-win-core-string-l1-1-0.dll',
   'BINARY'),
  ('api-ms-win-core-debug-l1-1-0.dll',
   'c:\\users\\wot-mahek\\.conda\\envs\\cutsomtf\\api-ms-win-core-debug-l1-1-0.dll',
   'BINARY'),
  ('api-ms-win-core-namedpipe-l1-1-0.dll',
   'c:\\users\\wot-mahek\\.conda\\envs\\cutsomtf\\api-ms-win-core-namedpipe-l1-1-0.dll',
   'BINARY'),
  ('api-ms-win-core-synch-l1-1-0.dll',
   'c:\\users\\wot-mahek\\.conda\\envs\\cutsomtf\\api-ms-win-core-synch-l1-1-0.dll',
   'BINARY'),
  ('api-ms-win-core-libraryloader-l1-1-0.dll',
   'c:\\users\\wot-mahek\\.conda\\envs\\cutsomtf\\api-ms-win-core-libraryloader-l1-1-0.dll',
   'BINARY'),
  ('api-ms-win-core-errorhandling-l1-1-0.dll',
   'c:\\users\\wot-mahek\\.conda\\envs\\cutsomtf\\api-ms-win-core-errorhandling-l1-1-0.dll',
   'BINARY'),
  ('api-ms-win-core-file-l2-1-0.dll',
   'c:\\users\\wot-mahek\\.conda\\envs\\cutsomtf\\api-ms-win-core-file-l2-1-0.dll',
   'BINARY'),
  ('api-ms-win-core-file-l1-1-0.dll',
   'c:\\users\\wot-mahek\\.conda\\envs\\cutsomtf\\api-ms-win-core-file-l1-1-0.dll',
   'BINARY'),
  ('api-ms-win-core-memory-l1-1-0.dll',
   'c:\\users\\wot-mahek\\.conda\\envs\\cutsomtf\\api-ms-win-core-memory-l1-1-0.dll',
   'BINARY'),
  ('api-ms-win-core-interlocked-l1-1-0.dll',
   'c:\\users\\wot-mahek\\.conda\\envs\\cutsomtf\\api-ms-win-core-interlocked-l1-1-0.dll',
   'BINARY'),
  ('api-ms-win-core-processenvironment-l1-1-0.dll',
   'c:\\users\\wot-mahek\\.conda\\envs\\cutsomtf\\api-ms-win-core-processenvironment-l1-1-0.dll',
   'BINARY'),
  ('api-ms-win-core-synch-l1-2-0.dll',
   'c:\\users\\wot-mahek\\.conda\\envs\\cutsomtf\\api-ms-win-core-synch-l1-2-0.dll',
   'BINARY'),
  ('api-ms-win-core-sysinfo-l1-1-0.dll',
   'c:\\users\\wot-mahek\\.conda\\envs\\cutsomtf\\api-ms-win-core-sysinfo-l1-1-0.dll',
   'BINARY'),
  ('api-ms-win-core-handle-l1-1-0.dll',
   'c:\\users\\wot-mahek\\.conda\\envs\\cutsomtf\\api-ms-win-core-handle-l1-1-0.dll',
   'BINARY'),
  ('api-ms-win-core-util-l1-1-0.dll',
   'c:\\users\\wot-mahek\\.conda\\envs\\cutsomtf\\api-ms-win-core-util-l1-1-0.dll',
   'BINARY'),
  ('api-ms-win-core-console-l1-1-0.dll',
   'c:\\users\\wot-mahek\\.conda\\envs\\cutsomtf\\api-ms-win-core-console-l1-1-0.dll',
   'BINARY'),
  ('api-ms-win-core-localization-l1-2-0.dll',
   'c:\\users\\wot-mahek\\.conda\\envs\\cutsomtf\\api-ms-win-core-localization-l1-2-0.dll',
   'BINARY'),
  ('api-ms-win-core-profile-l1-1-0.dll',
   'c:\\users\\wot-mahek\\.conda\\envs\\cutsomtf\\api-ms-win-core-profile-l1-1-0.dll',
   'BINARY'),
  ('api-ms-win-core-timezone-l1-1-0.dll',
   'c:\\users\\wot-mahek\\.conda\\envs\\cutsomtf\\api-ms-win-core-timezone-l1-1-0.dll',
   'BINARY'),
  ('api-ms-win-core-file-l1-2-0.dll',
   'c:\\users\\wot-mahek\\.conda\\envs\\cutsomtf\\api-ms-win-core-file-l1-2-0.dll',
   'BINARY'),
  ('api-ms-win-core-processthreads-l1-1-0.dll',
   'c:\\users\\wot-mahek\\.conda\\envs\\cutsomtf\\api-ms-win-core-processthreads-l1-1-0.dll',
   'BINARY'),
  ('api-ms-win-core-datetime-l1-1-0.dll',
   'c:\\users\\wot-mahek\\.conda\\envs\\cutsomtf\\api-ms-win-core-datetime-l1-1-0.dll',
   'BINARY'),
  ('api-ms-win-core-rtlsupport-l1-1-0.dll',
   'c:\\users\\wot-mahek\\.conda\\envs\\cutsomtf\\api-ms-win-core-rtlsupport-l1-1-0.dll',
   'BINARY'),
  ('api-ms-win-core-heap-l1-1-0.dll',
   'c:\\users\\wot-mahek\\.conda\\envs\\cutsomtf\\api-ms-win-core-heap-l1-1-0.dll',
   'BINARY'),
  ('api-ms-win-core-processthreads-l1-1-1.dll',
   'c:\\users\\wot-mahek\\.conda\\envs\\cutsomtf\\api-ms-win-core-processthreads-l1-1-1.dll',
   'BINARY'),
  ('select',
   'c:\\users\\wot-mahek\\.conda\\envs\\cutsomtf\\DLLs\\select.pyd',
   'EXTENSION'),
  ('_socket',
   'c:\\users\\wot-mahek\\.conda\\envs\\cutsomtf\\DLLs\\_socket.pyd',
   'EXTENSION'),
  ('_lzma',
   'c:\\users\\wot-mahek\\.conda\\envs\\cutsomtf\\DLLs\\_lzma.pyd',
   'EXTENSION'),
  ('_bz2',
   'c:\\users\\wot-mahek\\.conda\\envs\\cutsomtf\\DLLs\\_bz2.pyd',
   'EXTENSION'),
  ('_hashlib',
   'c:\\users\\wot-mahek\\.conda\\envs\\cutsomtf\\DLLs\\_hashlib.pyd',
   'EXTENSION'),
  ('_ssl',
   'c:\\users\\wot-mahek\\.conda\\envs\\cutsomtf\\DLLs\\_ssl.pyd',
   'EXTENSION'),
  ('unicodedata',
   'c:\\users\\wot-mahek\\.conda\\envs\\cutsomtf\\DLLs\\unicodedata.pyd',
   'EXTENSION'),
  ('pyexpat',
   'c:\\users\\wot-mahek\\.conda\\envs\\cutsomtf\\DLLs\\pyexpat.pyd',
   'EXTENSION'),
  ('win32gui',
   'c:\\users\\wot-mahek\\.conda\\envs\\cutsomtf\\lib\\site-packages\\win32\\win32gui.pyd',
   'EXTENSION'),
  ('api-ms-win-crt-utility-l1-1-0.dll',
   'c:\\users\\wot-mahek\\.conda\\envs\\cutsomtf\\api-ms-win-crt-utility-l1-1-0.dll',
   'BINARY'),
  ('pywintypes36.dll',
   'c:\\users\\wot-mahek\\.conda\\envs\\cutsomtf\\Lib\\site-packages\\pywin32_system32\\pywintypes36.dll',
   'BINARY'),
  ('base_library.zip',
   'D:\\netra-desktopapp\\build\\get_window_name\\base_library.zip',
   'DATA')],)
