('D:\\netra-desktopapp\\build\\get_window_name\\PKG-00.pkg',
 {'BINARY': 1,
  'DATA': 1,
  'EXECUTABLE': 1,
  'EXTENSION': 1,
  'PYMODULE': 1,
  'PYSOURCE': 1,
  'PYZ': 0},
 [('PYZ-00.pyz',
   'D:\\netra-desktopapp\\build\\get_window_name\\PYZ-00.pyz',
   'PYZ'),
  ('struct',
   'c:\\users\\wot-mahek\\.conda\\envs\\cutsomtf\\lib\\struct.pyo',
   'PYMODULE'),
  ('pyimod01_os_path',
   'c:\\users\\wot-mahek\\.conda\\envs\\cutsomtf\\lib\\site-packages\\PyInstaller\\loader\\pyimod01_os_path.pyc',
   'PYMODULE'),
  ('pyimod02_archive',
   'c:\\users\\wot-mahek\\.conda\\envs\\cutsomtf\\lib\\site-packages\\PyInstaller\\loader\\pyimod02_archive.pyc',
   'PYMODULE'),
  ('pyimod03_importers',
   'c:\\users\\wot-mahek\\.conda\\envs\\cutsomtf\\lib\\site-packages\\PyInstaller\\loader\\pyimod03_importers.pyc',
   'PYMODULE'),
  ('pyiboot01_bootstrap',
   'c:\\users\\wot-mahek\\.conda\\envs\\cutsomtf\\lib\\site-packages\\PyInstaller\\loader\\pyiboot01_bootstrap.py',
   'PYSOURCE'),
  ('get_window_name', 'D:\\netra-desktopapp\\get_window_name.py', 'PYSOURCE'),
  ('get_window_name.exe.manifest',
   'D:\\netra-desktopapp\\build\\get_window_name\\get_window_name.exe.manifest',
   'BINARY')],
 True,
 False,
 False,
 [])
